ravelian_crusade = {
    mechanics = {
        crusades_after_age_limit
    }
	modifier = {
		manpower_in_true_faith_provinces= 0.30
		tolerance_heretic = -3
		tolerance_heathen = -3
	}
    trigger = {
        is_papal_controller = yes
    }
    ai_will_do = {
        factor = 0
    }
}

contemplation_edict = {
    modifier = {
        curia_powers_cost = -0.5
    }
    trigger = {
        is_papal_controller = yes
    }
    ai_will_do = {
        factor = 0
    }
}

holiness_in_simple_work = {
    modifier = {
		production_efficiency = 0.25
		global_tax_modifier = 0.25
		technology_cost = 0.05
    }
    trigger = {
        is_papal_controller = yes
    }
    ai_will_do = {
        factor = 1
    }
}

faith_through_trade = {
    modifier = {
		global_missionary_strength = 0.02
		global_trade_power = 0.2
		global_tax_modifier = -0.1
    }
    trigger = {
        is_papal_controller = yes
    }
    ai_will_do = {
        factor = 2
    }
}

revelation_dissemination = {
    modifier = {
        embracement_cost = -0.1
        global_institution_spread = 0.25
		global_unrest = 1
    }
    mechanics = {
        cardinals_spread_institution
    }
    trigger = {
        is_papal_controller = yes
    }
    ai_will_do = {
        factor = 0
        modifier = {
            factor = 5
            is_lacking_institutions = yes
        }
    }
}

#one_dove_one_god = {
#    modifier = {
#        imperial_authority = 0.2
#		imperial_reform_catholic_approval = 15
#    }
#    trigger = {
#        is_papal_controller = yes
#        is_emperor = yes
#		hre_religion = ravelian
#        hre_religion_locked = yes
#    }
#    ai_will_do = {
#        factor = 0
#        modifier = {
#            factor = 6
#            is_emperor = yes
#            hre_religion = catholic
#            hre_religion_locked = yes
#        }
#    }
#}

one_world_one_god = {
    modifier = {
        yearly_absolutism = 1
        tolerance_heathen = 2
        diplomatic_reputation = -1
    }
    trigger = {
        is_papal_controller = yes
    }
    ai_will_do = {
        factor = 1
        modifier = {
            factor = 1
            average_unrest = 2
        }
        modifier = {
            factor = 1
            average_unrest = 4
        }
        modifier = {
            factor = 1
            average_unrest = 6
        }
    }
}
