#176 - Bearn | 

owner = A26
controller = A26
culture = redscale_kobold
religion = kobold_dragon_cult

hre = no

base_tax = 2
base_production = 1
base_manpower = 1

trade_goods = fish

capital = ""

is_city = yes









477.1.1 = {	
	owner = A26
	controller = A26
	add_core = A26
}