#209 - Vizcaya | 

owner = A76
controller = A76
add_core = A76
culture = uelairey
religion = regent_court

hre = yes

base_tax = 4
base_production = 4
base_manpower = 2

trade_goods = fish

capital = ""

is_city = yes









add_permanent_province_modifier = {
	name = halfling_minority_coexisting_large
	duration = -1
}