# No previous file for Almaty
owner = F10
controller = F10
add_core = F10
culture = west_sandfang_gnoll
religion = xhazobkult

hre = no

base_tax = 1
base_production = 2
base_manpower = 2

trade_goods = grain

capital = ""

is_city = yes







