#462 - Mingrelia

owner = F01
controller = F01
add_core = F01
add_core = F04
culture = kheteratan
religion = khetist

hre = no

base_tax = 4
base_production = 4
base_manpower = 3

trade_goods = grain

capital = ""

is_city = yes











add_permanent_province_modifier = {
	name = mothers_sorrow_estuary_modifier
	duration = -1
}