#552 - Kaboustraz

owner = F21
controller = F21
add_core = F21
culture = sun_elf
religion = bulwari_sun_cult

base_tax = 2
base_production = 2
base_manpower = 1

trade_goods = cotton

capital = ""

is_city = yes











add_permanent_province_modifier = {
	name = human_minority_coexisting_small
	duration = -1
}
