#651 - Kuzak

owner = F22
controller = F22
add_core = F22
add_core = F21
culture = bahari
religion = bulwari_sun_cult

base_tax = 2
base_production = 3
base_manpower = 3

trade_goods = copper

capital = ""

is_city = yes










