#These are Pelomar Missions

pelomar1_missions = { 
	slot = 1 
	generic = no
	ai = yes 
	has_country_shield = yes
	potential = {
		tag = H08
	}
	
	h08_reclaim_pelodard = {
		icon = mission_rb_conquer_brittany
		required_missions = { h08_honor_the_ancestors }
		position = 2
		
		trigger = {
			pelodard_area = { 
				type = all
				OWNED_BY = ROOT 
			}
		}
		effect = {
			gathgob_area = {
				limit = {
					NOT = { is_core = ROOT }
					NOT = { is_permanent_claim = ROOT }
				}
				add_permanent_claim = ROOT
			}
			drisleak_area = {
				limit = {
					NOT = { is_core = ROOT }
					NOT = { is_permanent_claim = ROOT }
				}
				add_permanent_claim = ROOT
			}
		}
	}
	h08_arakepruni_rivals = {
		icon = mission_unite_rajputana
		required_missions = { h08_reclaim_pelodard }
		position = 3
		
		trigger = {
			OR = {
				is_rival = H01
				NOT = { exists = H01 }
			}
			if = {
				limit = {
					exists = H01
				}
				war_with = H01
			}
		}
		effect = {
			add_country_modifier = { name = "pelomar_bitter_rivalry" duration = 7300 }
		}
	}
	h08_elchosi_frontier = {
		icon = mission_novgorod_the_great
		required_missions = { h08_arakepruni_rivals }
		position = 4
		
		trigger = {
			OR = {
				monkast_area = { type = all OWNED_BY = ROOT }
				any_owned_province = {
					has_fort_building_trigger = yes
					OR = {
						province_distance = {
							who = 2007
							distance = 100
						}
						province_distance = {
							who = 2008
							distance = 100
						}
						province_distance = {
							who = 2009
							distance = 100
						}
					}
				}
			}
		}
		effect = {
			add_country_modifier = { name = "pelomar_arakeprun_border" duration = 5475 }
		}
	}
	h08_end_the_selphereg_apostasy = {
		icon = mission_rb_control_state_religion
		required_missions = { 
			h08_elchosi_frontier
			h08_subdue_heretical_worship
		}
		position = 5
		
		trigger = {
			darhan_area = {
				type = all
				OWNED_BY = ROOT
			}
			2007 = {
				is_core = ROOT
				religion = eordellon
			}
		}
		effect = {
			2007 = {
				change_culture = peitar
				change_province_name = "Sakflor" #WiltedFlower
				rename_capital = "Sakflor"
			}
			add_adm_power = 100
			add_prestige = 20
			trasand_area = {
				limit = {
					NOT = { is_core = ROOT }
					NOT = { is_permanent_claim = ROOT }
				}
				add_permanent_claim = ROOT
			}
			iadth_area = {
				limit = {
					NOT = { is_core = ROOT }
					NOT = { is_permanent_claim = ROOT }
				}
				add_permanent_claim = ROOT
			}
			ruigfar_area = {
				limit = {
					NOT = { is_core = ROOT }
					NOT = { is_permanent_claim = ROOT }
				}
				add_permanent_claim = ROOT
			}
		}
	}
	h08_wane_of_the_autumn_moon = {
		icon = mission_sponsor_piracy
		required_missions = { 
			h08_end_the_selphereg_apostasy
		}
		position = 6
		
		trigger = {
			2159 = {
				owned_by = ROOT
			}
			NOT = { exists = H10 }
		}
		effect = {
			add_war_exhaustion = -2
			add_treasury = 100
			add_prestige = 10
			2159 = {
				change_culture = peitar
				change_province_name = "Lebhard" #FetidHarvest
				rename_capital = "Lebhard"
			}
			sglolad_area = {
				limit = {
					NOT = { is_core = ROOT }
					NOT = { is_permanent_claim = ROOT }
				}
				add_permanent_claim = ROOT
			}
			raithlos_area = {
				limit = {
					NOT = { is_core = ROOT }
					NOT = { is_permanent_claim = ROOT }
				}
				add_permanent_claim = ROOT
			}
			tamharcroc_area = {
				limit = {
					NOT = { is_core = ROOT }
					NOT = { is_permanent_claim = ROOT }
				}
				add_permanent_claim = ROOT
			}
			fogharbac_area = {
				limit = {
					NOT = { is_core = ROOT }
					NOT = { is_permanent_claim = ROOT }
				}
				add_permanent_claim = ROOT
			}
		}
	}
	h08_extinguish_darblath_autumnals = {
		icon = mission_rb_unite_the_clans
		required_missions = { 
			h08_wane_of_the_autumn_moon
		}
		position = 7
		
		trigger = {
			1969 = {
				owned_by = ROOT
				religion = eordellon
			}
			NOT = { exists = H14 }
		}
		effect = {
			1969 = {
				add_province_modifier = { name = "pelomar_fortress_of_four" duration = -1 }
			}
		}
	}
}

pelomar2_missions = { 
	slot = 2 
	generic = no
	ai = yes 
	has_country_shield = yes
	potential = {
		tag = H08
	}
	
	h08_honor_the_ancestors = {
		icon = mission_rb_conquer_the_highlands
		required_missions = {  }
		position = 1
		
		trigger = {
			2034 = {
				development = 7
			}
			2029 = {
				development = 7
			}
		}
		effect = { 
			increase_legitimacy_medium_effect = yes
			add_prestige = 10
		}
	}
	h08_prove_oathsworn_name = {
		icon = mission_rb_rein_in_the_highland_clans
		required_missions = { 
			h08_reclaim_pelodard
			h08_romance_of_the_southrealms
		}
		position = 3
		
		trigger = {
			has_legitimacy_equivalent = { VAL=99 }
			prestige = 50
			OR = {
				AND = {
					accepted_culture = selphereg
					accepted_culture = caamas
				}
				government_rank = 3
			}
		}
		effect = {
			monkast_area = {
				limit = {
					NOT = { is_core = ROOT }
					NOT = { is_permanent_claim = ROOT }
				}
				add_permanent_claim = ROOT
			}
			paskala_area = {
				limit = {
					NOT = { is_core = ROOT }
					NOT = { is_permanent_claim = ROOT }
				}
				add_permanent_claim = ROOT
			}
			add_stability_or_adm_power = yes
		}
	}
	h08_subdue_heretical_worship = {
		icon = mission_fire_judgement
		required_missions = { 
			h08_prove_oathsworn_name
		}
		position = 4
		
		trigger = {
			OR = {
				AND = {
					accepted_culture = selphereg
					accepted_culture = caamas
				}
				government_rank = 3
			}
			pelodard_area = {
				type = all
				religion = eordellon
			}
			drisleak_area = {
				type = all
				religion = eordellon
			}
			gathgob_area = {
				type = all
				religion = eordellon
			}
			2035 = {
				religion = eordellon
			}
			2023 = {
				religion = eordellon
			}
		}
		effect = {
			add_country_modifier = { name = "peitar_inquisition" duration = 9125 }
		}
	}
	h08_winter_winds_vanquished = {
		icon = mission_protect_white_sea_trade
		required_missions = {
			h08_extinguish_darblath_autumnals
			h08_the_northern_passage
		}
		position = 8
		
		trigger = {
			jhorgashirr_area = {
				owned_by = ROOT
			}
			gemradcurt_area = {
				owned_by = ROOT
			}
			1775 = {
				religion = eordellon
			}
		}
		effect = {
			add_dip_power = 100
			add_treasury = 100
			add_prestige = 10
			1775 = {
				change_culture = peitar
				change_province_name = "Darbait" #FinalThawing
				rename_capital = "Darbait"
			}
			medhan_area = {
				limit = {
					NOT = { is_core = ROOT }
					NOT = { is_permanent_claim = ROOT }
				}
				add_permanent_claim = ROOT
			}
			fardach_area = {
				limit = {
					NOT = { is_core = ROOT }
					NOT = { is_permanent_claim = ROOT }
				}
				add_permanent_claim = ROOT
			}
			dartir_area = {
				limit = {
					NOT = { is_core = ROOT }
					NOT = { is_permanent_claim = ROOT }
				}
				add_permanent_claim = ROOT
			}
		}
	}
	h08_harmony_of_the_seasons = {
		icon = mission_a_great_mandala
		required_missions = {
			h08_winter_winds_vanquished
		}
		position = 9
		
		trigger = {
			religious_unity = 0.9
			religion = eordellon
			has_legitimacy_equivalent = { VAL=90 }
			prestige = 75
		}
		effect = {
			eordand_superregion = {
				limit = {
					NOT = { owned_by = ROOT }
				}
				add_core = ROOT
			}
			add_country_modifier = { name = "pelomar_eordand_united" duration = 18250 }
		}
	}
	
}

pelomar3_missions = { 
	slot = 3 
	generic = no
	ai = yes 
	has_country_shield = yes
	potential = {
		tag = H08
	}
	
	h08_romance_of_the_southrealms = {
		icon = mission_candide_letter
		required_missions = { h08_honor_the_ancestors }
		position = 2
		
		trigger = {
			OR = {
				AND = {
					has_consort_flag = pelomar_leslindel
					is_year = 1454
				}
				AND = {
					NOT = { has_consort_flag = pelomar_leslindel }
					is_year = 1464
					marriage_with = H06
				}
			}
		}
		effect = {
			add_ruler_modifier = { name = "pelomar_admired_love" duration = -1 }
		}
	}
	
	h08_colltin_purchase = {
		icon = mission_monarch_diplomacy
		required_missions = { h08_prove_oathsworn_name }
		position = 3
		
		trigger = {
			2039 = {
				owned_by = H06
			}
			2033 = {
				owned_by = H08
			}
			reverse_has_opinion = {
				who = H06
				value = 180
			}
			dip_power = 50
		}
		effect = {
			country_event = { id = eordand.10 days = 1 }
		}
	}
	h08_aid_to_sidparen_relatives = {
		icon = mission_abu_saids_dream
		required_missions = { 
			h08_prove_oathsworn_name
			h08_colltin_purchase
		}
		position = 4
		
		trigger = {
			2035 = {
				OWNED_BY = ROOT 
			}
			2023 = {
				OWNED_BY = ROOT
			}
			dearktir_area = {
				type = all
				OR = {
					AND = {
						exists = H06
						OWNED_BY = H06
					}
					AND = {
						NOT = { exists = H06 }
						OWNED_BY = H08
					}
				}
			}
		}
		effect = {
			add_country_modifier = { name = "pelomar_honored_alliance" duration = 9125 }
			add_opinion = {
				who = H06
				modifier = eordand_pelomar_alliance_honored
			}
			add_dip_power = 50
			
		}
	}
	h08_gatethrone_of_sidpar = {
		icon = mission_restore_faith_in_the_throne
		required_missions = { 
			h08_aid_to_sidparen_relatives
			h08_subdue_heretical_worship
			h08_spilled_salt
		}
		position = 5
		
		trigger = {
			OR = {
				AND = {
					exists = H06
					prestige = H06
					dip_power = 150
					has_opinion = {
						who = H06
						value = 200
					}
				}
				AND = {
					NOT = { exists = H06 }
					owns_core_province = 2042
				}
			}
		}
		effect = {
			if = {
				limit = {
					exists = H06
				}
				vassalize = H06
				add_dip_power = -150
			}
			serakriok_area = {
				limit = {
					NOT = { is_core = ROOT }
					NOT = { is_permanent_claim = ROOT }
				}
				add_permanent_claim = H06
			}
			murdkather_area = {
				limit = {
					NOT = { is_core = ROOT }
					NOT = { is_permanent_claim = ROOT }
				}
				add_permanent_claim = H06
			}
		}
	}
	h08_swiftsword_legacy = {
		icon = mission_subdue_rajputana
		required_missions = { 
			h08_gatethrone_of_sidpar
		}
		position = 6
		
		trigger = {
			serakriok_area = {
				type = all
				OR = {
					AND = {
						exists = H06
						OWNED_BY = H06
					}
					AND = {
						NOT = { exists = H06 }
						OWNED_BY = ROOT
					}
				}
			}
			murdkather_area = {
				type = all
				OR = {
					AND = {
						exists = H06
						OWNED_BY = H06
					}
					AND = {
						NOT = { exists = H06 }
						OWNED_BY = ROOT
					}
				}
			}
		}
		effect = {
			2037 = {
				change_culture = peitar
				change_religion = eordellon
				change_province_name = "Granset" #Sunset
				rename_capital = "Granset"
			}
			add_dip_power = 100
			add_prestige = 20
		}
	}
	h08_the_northern_passage = {
		icon = mission_conquer_andhra_vij
		required_missions = { 
			h08_swiftsword_legacy
		}
		position = 7
		
		trigger = {
			owns_core_province = 2045
			trimgarb_area = {
				owned_by = ROOT
			}
			OR = {
				NOT = { exists = H20 }
				H20 = {
					is_subject_of = ROOT
				}
			}
		}
		effect = {
			galbhan_area = {
				limit = {
					NOT = { is_core = ROOT }
					NOT = { is_permanent_claim = ROOT }
				}
				add_permanent_claim = ROOT
			}
			jhorgashirr_area = {
				limit = {
					NOT = { is_core = ROOT }
					NOT = { is_permanent_claim = ROOT }
				}
				add_permanent_claim = ROOT
			}
			trimgarb_area = {
				add_base_manpower = 1
			}
			2045 = {
				add_base_manpower = 1
			}
		}
	}
}

pelomar4_missions = { 
	slot = 4 
	generic = no
	ai = yes 
	has_country_shield = yes
	potential = {
		tag = H08
	}
	
	h08_spilled_salt = {
		icon = mission_dethrone_the_rurikovichs
		required_missions = {
			h08_colltin_purchase
		}
		position = 4
		
		trigger = {
			OR = {
				AND = {
					owns_core_province = 2022
					NOT = { exists = H07 }
				}
				AND = {
					H07 = { vassal_of = ROOT }
				}
			}
			2022 = {
				has_production_building_trigger = yes
			}
		}
		effect = {
			2022 = {
				add_province_modifier = { name = "pelomar_bagcatir_salt" duration = 5475 }
			}
		}
	}
	h08_gannag_estuary_development = {
		icon = mission_advance_to_the_dnieper
		required_missions = {
			h08_gatethrone_of_sidpar
		}
		position = 6
		
		trigger = {
			2030 = {
				AND = {
					OR = {
						is_core = ROOT
						owned_by = H06
					}
					development = 12
					has_production_building_trigger = yes
				}
			}
			2041 = {
				AND = {
					OR = {
						is_core = ROOT
						owned_by = H06
					}
					development = 15
					has_trade_building_trigger = yes
				}
			}
		}
		effect = {
			2030 = {
				change_culture = peitar
				add_province_modifier = { name = "pelodard_gannag" duration = -1 }
				change_trade_goods = cotton
			}
			2041 = {
				center_of_trade = 1
			}
			2042 = {
				add_base_tax = 2
				add_base_production = 2
				add_base_manpower = 1
			}
		}
	}
}

pelomar5_missions = {
	slot = 5
	generic = no
	ai = yes 
	has_country_shield = yes
	potential = {
		tag = H08
	}
	
	pelomar_ward_of_summer = {
		icon = mission_end_manipuri_raids
		required_missions = {
		}
		position = 1
		
		trigger = {
			2042 = {
				owned_by = ROOT
			}
		}
		effect = {
			increase_legitimacy_medium_effect = yes
			add_country_modifier = { name = "peitar_summer_ward_restored" duration = 9125 }
			2042 = {
				add_base_manpower = 1
			}
		}
	}
	pelomar_ward_of_spring = {
		icon = mission_rb_conquer_wales
		required_missions = {
		}
		position = 2
		
		trigger = {
			2027 = {
				owned_by = ROOT
			}
		}
		effect = {
			increase_legitimacy_medium_effect = yes
			add_country_modifier = { name = "peitar_spring_ward_restored" duration = 9125 }
			2027 = {
				add_base_manpower = 1
			}
		}
	}
	pelomar_ward_of_autumn = {
		icon = mission_portuguese_oman
		required_missions = {
		}
		position = 3
		
		trigger = {
			2003 = {
				owned_by = ROOT
			}
		}
		effect = {
			increase_legitimacy_medium_effect = yes
			add_country_modifier = { name = "peitar_autumn_ward_restored" duration = 9125 }
			2003 = {
				add_base_manpower = 1
			}
		}
	}
	pelomar_ward_of_winter = {
		icon = mission_rb_colonise_canada
		required_missions = {
		}
		position = 4
		
		trigger = {
			1994 = {
				owned_by = ROOT
			}
		}
		effect = {
			increase_legitimacy_medium_effect = yes
			add_country_modifier = { name = "peitar_winter_ward_restored" duration = 9125 }
			1994 = {
				add_base_manpower = 1
			}
		}
	}
}