namespace = aelnar
### Event to change culture
country_event = {
	id = aelnar.1
	title = aelnar.1.t
	desc = aelnar.1.d
	picture = URBANIZATION_eventPicture
	
	is_triggered_only = yes
	
	trigger = {
		always = yes
	}
	
	option = {
        name = aelnar.1.a
        ai_chance = { factor = 100 }
		
		if = {
			limit = { ruler_culture = ROOT }
			set_ruler_culture = star_elf
		}
		if = {
			limit = { has_heir = yes heir_culture = ROOT }
			set_heir_culture = star_elf
		}
		if = {
			limit = { has_consort = yes consort_culture = ROOT }
			set_consort_culture = star_elf
		}
		change_primary_culture = star_elf
		
		custom_tooltip = aelnar_zenith_tt
		hidden_effect = {
			every_owned_province = {
				limit = { culture = moon_elf }
				random = {
					chance = 90
					
					change_culture = star_elf
				}
			}
		}
		add_country_modifier = {
			name = aelnar_citizenship
			duration = -1
		}
	}
}

### Event to change government
country_event = {
	id = aelnar.2
	title = aelnar.2.t
	desc = aelnar.2.d
	picture = ARTWORK_eventPicture
	
	is_triggered_only = yes
	
	trigger = {
		always = yes
	}
	
	option = {
        name = aelnar.2.a
        ai_chance = { factor = 100 }
		add_prestige = 25
		reduce_stability_or_adm_power = yes
		change_government = monarchy
		set_country_flag = aelnar_government
		add_government_reform = enlightened_empire_reform
		add_faction = aelnar_blaiddtar
		add_faction = aelnar_suir
		add_faction = aelnar_cymscal
	}
}


### Event to form Silblaidd
country_event = {
	id = aelnar.3
	title = aelnar.3.t
	desc = aelnar.3.d
	picture = MAMLUK_WARRIORS_eventPicture
	
	is_triggered_only = yes
	
	trigger = {
		always = yes
	}
	
	option = {
        name = aelnar.3.a
        ai_chance = { factor = 100 }
		add_prestige = 25
		colonial_haraf = {
			limit = {
				owned_by = Z43
				is_city = yes
			}
			remove_claim = Z43
			remove_core = Z43
			add_core = Z44
		}
		release = Z44
		create_subject = {
			subject_type = autonomous_vassal
			subject = Z44
		}
		colonial_haraf = {
			limit = {
				NOT = { is_core = Z44 }
				NOT = { is_permanent_claim = Z44 }
			}
			add_permanent_claim = Z44
		}
		
		hidden_effect = {
			Z44 = {
				set_capital = 2164
				change_government = republic
				add_government_reform = oligarchy_reform
				change_primary_culture = star_elf
				change_religion = soise_vio
				add_treasury = 2000
				add_mil_power = 500
				add_adm_power = 500
				add_dip_power = 500
				add_stability = 2
				add_historical_friend = Z43
			}
			add_historical_friend = Z44
		}
	}
}

														### Aelnar Civil War
														
### King and heir visit countryside
country_event = {
	id = aelnar.4
	title = aelnar.4.t
	desc = aelnar.4.d
	picture = REVOLT_eventPicture
	
	fire_only_once = yes
	
	mean_time_to_happen = {
		months = 2
	}
	
	trigger = {
		tag = Z43
		has_disaster_progress = {
			disaster = aelnar_civil_war
			value = 20
		}
	}
	option = {
        name = aelnar.4.a
        ai_chance = { factor = 100 }
		add_stability_or_adm_power = yes
		add_disaster_progress = {
			disaster = aelnar_civil_war
			value = -25
		}
	}
}

### King and heir assassinated, young counsellor assume control
country_event = {
	id = aelnar.5
	title = aelnar.5.t
	desc = aelnar.5.d
	picture = CONSPIRACY_eventPicture
	
	is_triggered_only = yes
	
	trigger = {
		always = yes
	}
	
	option = {
        name = aelnar.5.a
        ai_chance = { factor = 100 }
		add_stability = -4
		add_prestige = -20
		if = {
			limit = { has_heir = yes }
			kill_heir = yes
		}
		kill_ruler = yes
		define_ruler = {
			adm = 2
			dip = 1
			mil = 1
			fixed = yes
			claim = 30
			min_age = 165
			name = "Eliendel"
			dynasty = "Blaiddguard"
		}
		hidden_effect = { add_ruler_personality = immortal_personality }
		hidden_effect = {
			country_event = { id = aelnar.6 days = 360 random = 300 }
			set_variable = { sicrheior_value = 60 } #Conqueror
			set_variable = { dahvar_value = 40 } #Priest
			set_variable = { aelthanas_value = 80 } #Communist
			set_variable = { kayd_value = 70 } #Warrior
		}
	}
}

### Calasandur assume control
country_event = {
	id = aelnar.6
	title = aelnar.6.t
	desc = aelnar.6.d
	picture = ELVEN_EYE_eventPicture
	
	is_triggered_only = yes
	
	trigger = {
		always = yes
	}
	option = {
        name = aelnar.6.a
        ai_chance = { factor = 100 }
		add_stability = 2
		tooltip = {
			define_ruler = {
				adm = 6
				dip = 6
				mil = 6
				fixed = yes
				claim = 55
				min_age = 309
				name = "Calasandur"
				dynasty = "Starseeker"
				male = yes
			}
			hidden_effect = { add_ruler_personality = immortal_personality }
			if = {
				limit = { has_heir = yes }
				kill_heir = yes
			}
		}
		hidden_effect = {
			define_heir = {
				adm = 6
				dip = 6
				mil = 6
				claim = 55
				birth_date = 1304.7.23
				name = "Calasandur"
				dynasty = "Starseeker"
				male = yes
			}
			kill_ruler = yes
			add_stability = 1
		}
		hidden_effect = {
			country_event = { id = aelnar.7 days = 10 }
			set_country_flag = aelnar_civil_war
		}
	}
}

### Demand for reform, noble want to enforce old privilege
country_event = {
	id = aelnar.7
	title = aelnar.7.t
	desc = aelnar.7.d
	picture = PRINCE_AND_BOYARS_eventPicture
	
	is_triggered_only = yes
	
	trigger = {
		has_disaster = aelnar_civil_war
	}
	option = {
        name = aelnar.7.a
        ai_chance = { factor = 100 }
		reduce_stability_or_adm_power = yes
		random_owned_area = {
			spawn_rebels = {
				size = 4
				type = anti_tax_rebels
			}
			spawn_rebels = {
				size = 1
				type = noble_rebels
			}
			add_devastation = 20
		}
		random_owned_area = {
			spawn_rebels = {
				size = 3
				type = anti_tax_rebels
			}
			spawn_rebels = {
				size = 2
				type = noble_rebels
			}
			add_devastation = 20
		}
		random_owned_area = {
			spawn_rebels = {
				size = 2
				type = noble_rebels
			}
			add_devastation = 20
		}
		random_owned_area = {
			spawn_rebels = {
				size = 2
				type = noble_rebels
			}
			spawn_rebels = {
				size = 3
				type = anti_tax_rebels
			}
			add_devastation = 20
		}
		hidden_effect = {
			country_event = { id = aelnar.8 days = 125 	random = 50 }
		}
	}
}

### All faction spawn
country_event = {
	id = aelnar.8
	title = aelnar.8.t
	desc = aelnar.8.d
	picture = ICONS_IN_CHURCH_eventPicture
	
	is_triggered_only = yes
	
	trigger = {
		has_disaster = aelnar_civil_war
	}
	
	immediate = {
		hidden_effect = {
			set_country_flag = aelnar_faction_war
		}
	}
	
	option = {
        name = aelnar.8.a
        ai_chance = { factor = 100 }
		custom_tooltip = aelnar_faction_war_tooltip
		hidden_effect = {
			country_event = { id = aelnar.9 days = 300 random = 50 }
		}
	}
}

### The Heroine Appear
country_event = {
	id = aelnar.9
	title = aelnar.9.t
	desc = aelnar.9.d
	picture = THE_HEROINE_eventPicture
	
	is_triggered_only = yes
	
	trigger = {
		has_disaster = aelnar_civil_war
	}
	
	option = {
        name = aelnar.9.a
        ai_chance = { factor = 100 }
		define_general = {
			shock = 6
			fire = 5
			manuever = 5
			siege = 1
			female = yes
			name = "Lithiel Oathkeeper"
			trait = inspirational_leader_general_personality
		}
		hidden_effect = { set_country_flag = lithiel_appear }
	}
}

### The flow of money
country_event = {
	id = aelnar.13
	title = aelnar.13.t
	desc = aelnar.13.d
	picture = COUNCIL_TRENT_eventPicture
	
	fire_only_once = yes
	
	mean_time_to_happen = {
		months = 6
	}
	
	trigger = {
		tag = Z43
		has_disaster = aelnar_civil_war
		has_country_flag = aelnar_faction_war
	}
	
	after = {
		hidden_effect = { country_event = { id = aelnar.14 days = 365 random = 365 } }
	}
	
	option = { #To the Army
        name = aelnar.13.a
        ai_chance = { factor = 100 }
		add_country_modifier = {
			name = aelnar_flow_of_money_army
			duration = -1
		}
		aelnar_happy_sicrheior = yes
		aelnar_happy_kayd = yes
		aelnar_angry_dahvar = yes
		aelnar_angry_aelthanas = yes
	}
	
	option = { #To the priest
        name = aelnar.13.b
        ai_chance = { factor = 100 }
		add_country_modifier = {
			name = aelnar_flow_of_money_priest
			duration = -1
		}
		aelnar_happy_dahvar = yes
		aelnar_angry_aelthanas = yes
		aelnar_angry_kayd = yes
		aelnar_angry_sicrheior = yes
	}
	
	option = { #To the people
        name = aelnar.13.c
        ai_chance = { factor = 100 }
		add_country_modifier = {
			name = aelnar_flow_of_money_people
			duration = -1
		}
		aelnar_happy_aelthanas = yes
		aelnar_angry_kayd = yes
		aelnar_angry_sicrheior = yes
		aelnar_angry_dahvar = yes
	}
	
	option = { #To the bureaucracy
        name = aelnar.13.e
        ai_chance = { factor = 100 }
		add_country_modifier = {
			name = aelnar_flow_of_money_bureaucracy
			duration = -1
		}
		aelnar_happy_aelthanas = yes
		aelnar_happy_sicrheior = yes
		aelnar_angry_kayd = yes
		aelnar_angry_dahvar = yes
	}
}

### Position of Power
country_event = {
	id = aelnar.14
	title = aelnar.14.t
	desc = aelnar.14.d
	picture = COUNCIL_TRENT_eventPicture
	
	is_triggered_only = yes
	
	trigger = {
		tag = Z43
		has_disaster = aelnar_civil_war
		has_country_flag = aelnar_faction_war
	}
	
	after = {
		hidden_effect = { country_event = { id = aelnar.15 days = 365 random = 365 } }
	}
	
	option = { #To the Army
        name = aelnar.14.a
        ai_chance = { factor = 100 }
		add_country_modifier = {
			name = aelnar_position_of_power_army
			duration = -1
		}
		aelnar_happy_kayd = yes
		aelnar_angry_sicrheior = yes
		aelnar_angry_dahvar = yes
		aelnar_angry_aelthanas = yes
	}
	
	option = { #To the priest
        name = aelnar.14.b
        ai_chance = { factor = 100 }
		add_country_modifier = {
			name = aelnar_position_of_power_priest
			duration = -1
		}
		aelnar_happy_dahvar = yes
		aelnar_angry_aelthanas = yes
		aelnar_angry_kayd = yes
		aelnar_angry_sicrheior = yes
	}
	
	option = { #To the people
        name = aelnar.14.c
        ai_chance = { factor = 100 }
		add_country_modifier = {
			name = aelnar_position_of_power_people
			duration = -1
		}
		aelnar_happy_aelthanas = yes
		aelnar_angry_kayd = yes
		aelnar_angry_sicrheior = yes
		aelnar_angry_dahvar = yes
	}
	
	option = { #To the bureaucracy
        name = aelnar.14.e
        ai_chance = { factor = 100 }
		add_country_modifier = {
			name = aelnar_position_of_power_bureaucracy
			duration = -1
		}
		aelnar_happy_sicrheior = yes
		aelnar_angry_aelthanas = yes
		aelnar_angry_kayd = yes
		aelnar_angry_dahvar = yes
	}
}

### The goal of our state
country_event = {
	id = aelnar.15
	title = aelnar.15.t
	desc = aelnar.15.d
	picture = COUNCIL_TRENT_eventPicture
	
	is_triggered_only = yes
	
	trigger = {
		tag = Z43
		has_disaster = aelnar_civil_war
		has_country_flag = aelnar_faction_war
	}
	
	option = { #An Army with a State
        name = aelnar.15.a
        ai_chance = { factor = 100 }
		add_country_modifier = {
			name = aelnar_the_goal_of_our_state_army
			duration = -1
		}
		aelnar_happy_kayd = yes
		aelnar_angry_sicrheior = yes
		aelnar_angry_dahvar = yes
		aelnar_angry_aelthanas = yes
	}
	
	option = { #A Holy State
        name = aelnar.15.b
        ai_chance = { factor = 100 }
		add_country_modifier = {
			name = aelnar_the_goal_of_our_state_priest
			duration = -1
		}
		aelnar_happy_dahvar = yes
		aelnar_angry_aelthanas = yes
		aelnar_angry_kayd = yes
		aelnar_angry_sicrheior = yes
	}
	
	option = { #A People with a State
        name = aelnar.15.c
        ai_chance = { factor = 100 }
		add_country_modifier = {
			name = aelnar_the_goal_of_our_state_people
			duration = -1
		}
		aelnar_happy_aelthanas = yes
		aelnar_angry_kayd = yes
		aelnar_angry_sicrheior = yes
		aelnar_angry_dahvar = yes
	}
	
	option = { #A State
        name = aelnar.15.e
        ai_chance = { factor = 100 }
		add_country_modifier = {
			name = aelnar_the_goal_of_our_state_bureaucracy
			duration = -1
		}
		aelnar_happy_sicrheior = yes
		aelnar_angry_aelthanas = yes
		aelnar_angry_kayd = yes
		aelnar_angry_dahvar = yes
	}
}

### Civil war auto event procing peasant
country_event = {
	id = aelnar.16
	title = aelnar.16.t
	desc = aelnar.16.d
	picture = BORDER_TENSION_eventPicture
	goto = province
	is_triggered_only = yes
	
	trigger = {
		any_owned_province = {
			controlled_by = ROOT
			has_port = no
			colonial_region = colonial_noruin
		}
	}
	
	immediate = {
		hidden_effect = {
			random_owned_province = {
				limit = {
					controlled_by = ROOT
					has_port = no
					colonial_region = colonial_noruin
				}
				save_event_target_as = province
				spawn_rebels = {
					size = 4
					type = anti_tax_rebels
				}
				add_devastation = 15
			}
		}
	}
	
	option = {
        name = aelnar.16.a
        ai_chance = { factor = 100 }
		tooltip = {
			event_target:province = {
				spawn_rebels = {
					size = 4
					type = anti_tax_rebels
				}
				add_devastation = 15
			}
		}
	}
}
### Civil war auto event procing noble
country_event = {
	id = aelnar.19
	title = aelnar.19.t
	desc = aelnar.19.d
	picture = BATTLE_eventPicture
	goto = province
	is_triggered_only = yes
	
	trigger = {
		any_owned_province = {
			controlled_by = ROOT
			has_port = no
			colonial_region = colonial_noruin
		}
	}
	
	immediate = {
		hidden_effect = {
			random_owned_province = {
				limit = {
					controlled_by = ROOT
					has_port = no
					colonial_region = colonial_noruin
				}
				save_event_target_as = province
				spawn_rebels = {
					size = 3
					type = noble_rebels
				}
				add_devastation = 15
			}
		}
	}
	
	option = {
        name = aelnar.19.a
        ai_chance = { factor = 100 }
		tooltip = {
			event_target:province = {
				spawn_rebels = {
					size = 3
					type = noble_rebels
				}
				add_devastation = 15
			}
		}
	}
}

### Civil war end
country_event = {
	id = aelnar.17
	title = aelnar.17.t
	desc = aelnar.17.d
	picture = AELNAR_eventPicture
	
	fire_only_once = yes
	
	mean_time_to_happen = {
		months = 2
	}
	
	trigger = {
		tag = Z43
		has_disaster = aelnar_civil_war
		has_country_flag = aelnar_civil_war_can_end
		OR = {
			NOT = { manpower = 5 }
			num_of_loans = 20
			num_of_rebel_controlled_provinces = 15
			num_of_rebel_armies = 10
			had_country_flag = {
				flag = aelnar_civil_war
				days = 9125
			}
		}
		NOT = {
			has_spawned_rebels = pretender_rebels
			has_spawned_rebels = aelnar_rebels
			has_spawned_rebels = nationalist_rebels
		}
	}
	option = {
        name = aelnar.17.a
        ai_chance = { factor = 100 }
		hidden_effect = {
			clr_country_flag = aelnar_civil_war
			clr_country_flag = aelnar_civil_war_can_end
			set_country_flag = aelnar_civil_war_end
		}
	}
}

### Calasandur stabilize the country, promises reform
country_event = {
	id = aelnar.18
	title = aelnar.18.t
	desc = {
		trigger = { has_country_flag = aelnar_civil_war_end }
		desc = aelnar.18.d
	}
	
	desc = {
		trigger = { NOT = { has_country_flag = aelnar_civil_war_end } }
		desc = aelnar.18.d.b
	}
	picture = AELNAR_eventPicture
	
	is_triggered_only = yes
	
	trigger = {
		always = yes
	}
	
	immediate = {
		hidden_effect = {
			disband_rebels = anti_tax_rebels
			disband_rebels = noble_rebels
			disband_rebels = aelnar_rebels
		}
	}
	
	option = {
		trigger = {
			OR = {
				NOT = { has_country_flag = aelnar_civil_war_lost }
				ai = yes
			}
		}
        name = aelnar.18.a
        ai_chance = { factor = 100 }
		set_country_flag = aelnar_civil_war_end
		add_stability = 3
		add_legitimacy = 100
		if = {
			limit = { ai = no }
			add_country_modifier = {
				name = aelnar_civil_war_aftermath
				duration = 10950
			}
		}
		if = {
			limit = { NOT = { has_ruler = "Lithiel" } }
			hidden_effect = { country_event = { id = aelnar.24 days = 15 } }
		}
	}
	
	option = {
		trigger = {
			ai = no
			has_country_flag = aelnar_civil_war_lost
		}
        name = aelnar.18.b
        ai_chance = { factor = 100 }
		set_country_flag = aelnar_civil_war_end
		add_country_modifier = {
			name = aelnar_civil_war_bloody_aftermath
			duration = 18250
		}
		country_event = { id = aelnar.26 }
	}
}

### Kwineh rebellion
country_event = {
	id = aelnar.20
	title = aelnar.20.t
	desc = aelnar.20.d
	picture = NYUA_RITUAL_eventPicture
	
	fire_only_once = yes
	
	mean_time_to_happen = {
		years = 8
	}
	
	trigger = {
		tag = Z43
		has_disaster = aelnar_civil_war
		any_owned_province = {
			region = bloodgroves_region
			culture = kwineh
		}
	}
	option = {
        name = aelnar.20.a
        ai_chance = { factor = 100 }
		if = {
			limit = {
				num_of_owned_provinces_with = {
					value = 11
					
					region = bloodgroves_region
					culture = kwineh
				}
			}
			every_owned_province = {
				limit = {
					region = bloodgroves_region
					culture = kwineh
				}
				spawn_rebels = {
					type = nationalist_rebels
					size = 2
					religion = weeping_mother
					win = yes
					leader = "Naaybej"
				}
			}
		}
		
		else_if = {
			limit = {
				num_of_owned_provinces_with = {
					value = 7
					
					region = bloodgroves_region
					culture = kwineh
				}
			}
			every_owned_province = {
				limit = {
					region = bloodgroves_region
					culture = kwineh
				}
				spawn_rebels = {
					type = nationalist_rebels
					size = 3.5
					religion = weeping_mother
					win = yes
					leader = "Naaybej"
				}
			}
		}
		
		else_if = {
			limit = {
				num_of_owned_provinces_with = {
					value = 4
					
					region = bloodgroves_region
					culture = kwineh
				}
			}
			every_owned_province = {
				limit = {
					region = bloodgroves_region
					culture = kwineh
				}
				spawn_rebels = {
					type = nationalist_rebels
					size = 4.5
					religion = weeping_mother
					win = yes
					leader = "Naaybej"
				}
			}
		}
		
		else = {
			every_owned_province = {
				limit = {
					region = bloodgroves_region
					culture = kwineh
				}
				spawn_rebels = {
					type = nationalist_rebels
					size = 6
					religion = weeping_mother
					win = yes
					leader = "Naaybej"
				}
			}
		}
	}
}

### Calasandur take arm
country_event = {
	id = aelnar.21
	title = aelnar.21.t
	desc = aelnar.21.d
	picture = EXCALIBUR_eventPicture
	
	fire_only_once = yes
	
	mean_time_to_happen = {
		years = 4
	}
	
	trigger = {
		tag = Z43
		has_disaster = aelnar_civil_war
		has_ruler = "Calasandur"
	}
	option = {
        name = aelnar.21.a
        ai_chance = { factor = 100 }
		add_prestige = 15
		increase_legitimacy_large_effect = yes
		define_ruler_to_general = {
			fire = 5
			shock = 5
			manuever = 7
			siege = 2
		}
		add_ruler_personality = strict_personality
	}
	option = {
        name = aelnar.21.b
        ai_chance = { factor = 100 }
		add_prestige = -15
		reduce_legitimacy_large_effect = yes
	}
}

##Factions rambling
country_event = {
	id = aelnar.44
	title = aelnar.44.t
	desc = aelnar.44.d
	picture = DHIMMI_ESTATE_eventPicture
	
	mean_time_to_happen = {
		months = 6
	}
	
	trigger = {
		tag = Z43
		has_disaster = aelnar_civil_war
		has_country_flag = aelnar_faction_war
		NOT = {
			AND = {
				OR = {
					has_country_flag = aelthanas_revolted
					NOT = { check_variable = { aelthanas_value = 0 } }
				}
				OR = {
					has_country_flag = dahvar_revolted
					NOT = { check_variable = { dahvar_value = 0 } }
				}
				OR = {
					has_country_flag = sicrheior_revolted
					NOT = { check_variable = { sicrheior_value = 0 } }
				}
				OR = {
					has_country_flag = kayd_revolted
					NOT = { check_variable = { kayd_value = 0 } }
				}
			}
		}
	}
	
	option = { #Kayd
        name = aelnar.44.a
        ai_chance = { factor = 100 }
		trigger = { NOT = { has_country_flag = kayd_revolted } }
		aelnar_little_angry_dahvar = yes
		aelnar_little_angry_aelthanas = yes
		aelnar_little_angry_sicrheior = yes
		random_list = {
			50 = { aelnar_happy_kayd = yes }
			50 = { aelnar_little_happy_kayd = yes }
		}
	}
	
	option = { #Aelthanas
        name = aelnar.44.b
        ai_chance = { factor = 100 }
		trigger = { NOT = { has_country_flag = aelthanas_revolted } }
		aelnar_little_angry_dahvar = yes
		aelnar_little_angry_kayd = yes
		aelnar_little_angry_sicrheior = yes
		random_list = {
			50 = { aelnar_happy_aelthanas = yes }
			50 = { aelnar_little_happy_aelthanas = yes }
		}
	}
	
	option = { #Dahvar
        name = aelnar.44.c
        ai_chance = { factor = 100 }
		trigger = { NOT = { has_country_flag = dahvar_revolted } }
		aelnar_little_angry_aelthanas = yes
		aelnar_little_angry_kayd = yes
		aelnar_little_angry_sicrheior = yes
		random_list = {
			50 = { aelnar_happy_dahvar = yes }
			50 = { aelnar_little_happy_dahvar = yes }
		}
	}
	
	option = { #Sicrheior
        name = aelnar.44.e
        ai_chance = { factor = 100 }
		trigger = { NOT = { has_country_flag = sicrheior_revolted } }
		aelnar_little_angry_aelthanas = yes
		aelnar_little_angry_kayd = yes
		aelnar_little_angry_dahvar = yes
		random_list = {
			50 = { aelnar_happy_sicrheior = yes }
			50 = { aelnar_little_happy_sicrheior = yes }
		}
	}
	
	option = { #No one
        name = aelnar.44.f
        ai_chance = { factor = 100 }
		if = {
			limit = { NOT = { stability = -2 } }
			add_adm_power = -100
			add_dip_power = -100
			add_mil_power = -100
		}
		else = {
			random = {
				chance = 80
				add_stability = -1
			}
		}
	}
}

##Kayd Revolt
country_event = {
	id = aelnar.45
	title = aelnar.45.t
	desc = aelnar.45.d
	picture = REVOLT_eventPicture
	goto = province
	mean_time_to_happen = {
		months = 3
	}
	
	trigger = {
		tag = Z43
		has_disaster = aelnar_civil_war
		check_variable = { kayd_value = 100 }
		NOT = { has_country_flag = kayd_revolted }
		any_owned_province = {
			is_capital = no
			is_in_capital_area = yes
			is_city = yes
			owned_by = ROOT
		}
	}
	
	immediate = {
		hidden_effect = {
			set_country_flag = kayd_revolted
			random_owned_province = {
				limit = {
					is_capital = no
					is_in_capital_area = yes
					is_city = yes
				}
				save_event_target_as = province
				add_core = Z70
				ROOT = { release = Z70 }
				area = {
					limit = { owned_by = ROOT is_capital = no }
					add_core = Z70
				}
			}
			every_owned_province = {
				limit = { is_core = Z70 }
				cede_province = Z70
			}
			Z70 = {
				change_primary_culture = moon_elf
				change_religion = elven_forebears
				change_technology_group = tech_elven
				change_unit_type = tech_elven
				define_ruler = {
					name = Kayd
					dynasty = Obaith
					adm = 2
					dip = 1
					mil = 6
					culture = moon_elf
					religion = elven_forebears
					min_age = 232
					male = yes
					fixed = yes
				}
				hidden_effect = { add_ruler_personality = immortal_personality }
				define_ruler_to_general = {
					fire = 5
					shock = 5
					manuever = 5
					siege = 2
				}
				kill_heir = yes
				add_country_modifier = {
					name = aelnar_kayd_revolt
					duration = 3650
				}
				rianvisa_starting_army = yes
				rianvisa_declare_war = yes
			}
		}
	}
	
	option = {
        name = aelnar.45.a
        ai_chance = { factor = 100 }
	}
	
	option = { #Play as Them
        name = aelnar.45.b
        ai_chance = { factor = 0 }
		switch_tag = Z70
	}
}

##Aelthanas Revolt
country_event = {
	id = aelnar.46
	title = aelnar.46.t
	desc = aelnar.46.d
	picture = REVOLT_eventPicture
	goto = province
	mean_time_to_happen = {
		months = 3
	}
	
	trigger = {
		tag = Z43
		has_disaster = aelnar_civil_war
		check_variable = { aelthanas_value = 100 }
		NOT = { has_country_flag = aelthanas_revolted }
		any_owned_province = {
			is_capital = no
			is_in_capital_area = yes
			is_city = yes
			owned_by = ROOT
		}
	}
	
	immediate = {
		hidden_effect = {
			set_country_flag = aelthanas_revolted
			random_owned_province = {
				limit = {
					is_capital = no
					is_in_capital_area = yes
					is_city = yes
				}
				save_event_target_as = province
				add_core = Z71
				ROOT = { release = Z71 }
				area = {
					limit = { owned_by = ROOT is_capital = no }
					add_core = Z71
				}
			}
			every_owned_province = {
				limit = { is_core = Z71 }
				cede_province = Z71
			}
			Z71 = {
				change_primary_culture = moon_elf
				change_religion = elven_forebears
				change_technology_group = tech_elven
				change_unit_type = tech_elven
				define_ruler = {
					name = Aelthanas
					dynasty = Sileaione
					adm = 6
					dip = 5
					mil = 2
					min_age = 187
					culture = moon_elf
					religion = elven_forebears
					male = yes
					fixed = yes
				}
				hidden_effect = { add_ruler_personality = immortal_personality }
				define_ruler_to_general = {
					fire = 3
					shock = 2
					manuever = 3
					siege = 5
				}
				kill_heir = yes
				add_country_modifier = {
					name = aelnar_aelthanas_revolt
					duration = 3650
				}
				rianvisa_starting_army = yes
				rianvisa_declare_war = yes
			}
		}
	}
	
	option = {
        name = aelnar.46.a
        ai_chance = { factor = 100 }
	}
	
	option = { #Play as Them
        name = aelnar.46.b
        ai_chance = { factor = 0 }
		switch_tag = Z71
	}
}

##Sicrheior Revolt
country_event = {
	id = aelnar.47
	title = aelnar.47.t
	desc = aelnar.47.d
	picture = REVOLT_eventPicture
	goto = province
	mean_time_to_happen = {
		months = 3
	}
	
	trigger = {
		tag = Z43
		has_disaster = aelnar_civil_war
		check_variable = { sicrheior_value = 100 }
		NOT = { has_country_flag = sicrheior_revolted }
		any_owned_province = {
			is_capital = no
			is_in_capital_area = yes
			is_city = yes
			owned_by = ROOT
		}
	}
	
	immediate = {
		hidden_effect = {
			set_country_flag = sicrheior_revolted
			random_owned_province = {
				limit = {
					is_capital = no
					is_in_capital_area = yes
					is_city = yes
				}
				save_event_target_as = province
				add_core = Z72
				ROOT = { release = Z72 }
				area = {
					limit = { owned_by = ROOT is_capital = no }
					add_core = Z72
				}
			}
			every_owned_province = {
				limit = { is_core = Z72 }
				cede_province = Z72
			}
			Z72 = {
				change_primary_culture = moon_elf
				change_religion = elven_forebears
				change_technology_group = tech_elven
				change_unit_type = tech_elven
				define_ruler = {
					name = Sicrheior
					dynasty = Morineil
					adm = 5
					dip = 5
					mil = 5
					min_age = 312
					culture = moon_elf
					religion = elven_forebears
					male = yes
					fixed = yes
				}
				hidden_effect = { add_ruler_personality = immortal_personality }
				define_ruler_to_general = {
					fire = 5
					shock = 4
					manuever = 5
					siege = 4
				}
				kill_heir = yes
				add_country_modifier = {
					name = aelnar_sicrheior_revolt
					duration = 3650
				}
				rianvisa_starting_army = yes
				rianvisa_declare_war = yes
			}
		}
	}
	
	option = {
        name = aelnar.47.a
        ai_chance = { factor = 100 }
	}
	
	option = { #Play as Them
        name = aelnar.47.b
        ai_chance = { factor = 0 }
		switch_tag = Z72
	}
}

##Dahvar Revolt
country_event = {
	id = aelnar.48
	title = aelnar.48.t
	desc = aelnar.48.d
	picture = REVOLT_eventPicture
	goto = province
	mean_time_to_happen = {
		months = 3
	}
	
	trigger = {
		tag = Z43
		has_disaster = aelnar_civil_war
		check_variable = { dahvar_value = 100 }
		NOT = { has_country_flag = dahvar_revolted }
		any_owned_province = {
			is_capital = no
			is_in_capital_area = yes
			is_city = yes
			owned_by = ROOT
		}
	}
	
	immediate = {
		hidden_effect = {
			set_country_flag = dahvar_revolted
			random_owned_province = {
				limit = {
					is_capital = no
					is_in_capital_area = yes
					is_city = yes
				}
				save_event_target_as = province
				add_core = Z73
				ROOT = { release = Z73 }
				area = {
					limit = { owned_by = ROOT is_capital = no }
					add_core = Z73
				}
			}
			every_owned_province = {
				limit = { is_core = Z73 }
				cede_province = Z73
			}
			Z73 = {
				change_primary_culture = moon_elf
				change_religion = elven_forebears
				change_technology_group = tech_elven
				change_unit_type = tech_elven
				define_ruler = {
					name = Dahvar
					dynasty = Siltar
					adm = 4
					dip = 6
					mil = 1
					min_age = 287
					culture = moon_elf
					religion = elven_forebears
					male = yes
					fixed = yes
				}
				hidden_effect = { add_ruler_personality = immortal_personality }
				define_ruler_to_general = {
					fire = 3
					shock = 2
					manuever = 2
					siege = 1
				}
				kill_heir = yes
				add_country_modifier = {
					name = aelnar_dahvar_revolt
					duration = 3650
				}
				rianvisa_starting_army = yes
				rianvisa_declare_war = yes
			}
		}
	}
	
	option = {
        name = aelnar.48.a
        ai_chance = { factor = 100 }
	}
	
	option = { #Play as Them
        name = aelnar.48.b
        ai_chance = { factor = 0 }
		switch_tag = Z73
	}
}

##Usurp Aelnar
country_event = {
	id = aelnar.49
	title = aelnar.49.t
	desc = aelnar.49.d
	picture = ARTWORK_eventPicture
	
	is_triggered_only = yes
	
	trigger = {
		NOT = { has_country_flag = po_rianvisa_debug }
	}
	
	immediate = {
		hidden_effect = { set_country_flag = po_rianvisa_debug }
	}
	
	after = {
		hidden_effect = { clr_country_flag = po_rianvisa_debug }
	}
	
	option = {
        name = aelnar.49.a
        ai_chance = { factor = 100 }
		if = {
			limit = { tag = Z70 }
			Z43 = {
				define_ruler = {
					name = Kayd
					dynasty = Obaith
					adm = 2
					dip = 1
					mil = 6
					min_age = 232
					culture = moon_elf
					religion = elven_forebears
					male = yes
					fixed = yes
				}
				hidden_effect = { add_ruler_personality = immortal_personality }
				hidden_effect = {
					set_country_flag = aelnar_kayd_won
					clr_country_flag = aelnar_lithiel_won
					clr_country_flag = aelnar_aelthanas_won
					clr_country_flag = aelnar_dahvar_won
					clr_country_flag = aelnar_sicrheior_won
				}
			}
		}
		if = {
			limit = { tag = Z71 }
			Z43 = {
				define_ruler = {
					name = Aelthanas
					dynasty = Sileaione
					adm = 6
					dip = 5
					mil = 2
					min_age = 187
					culture = moon_elf
					religion = elven_forebears
					male = yes
					fixed = yes
				}
				hidden_effect = { add_ruler_personality = immortal_personality }
				hidden_effect = {
					set_country_flag = aelnar_aelthanas_won
					clr_country_flag = aelnar_lithiel_won
					clr_country_flag = aelnar_kayd_won
					clr_country_flag = aelnar_dahvar_won
					clr_country_flag = aelnar_sicrheior_won
				}
			}
		}
		if = {
			limit = { tag = Z72 }
			Z43 = {
				define_ruler = {
					name = Sicrheior
					dynasty = Morineil
					adm = 5
					dip = 5
					mil = 5
					min_age = 312
					culture = moon_elf
					religion = elven_forebears
					male = yes
					fixed = yes
				}
				hidden_effect = { add_ruler_personality = immortal_personality }
				hidden_effect = {
					set_country_flag = aelnar_sicrheior_won
					clr_country_flag = aelnar_lithiel_won
					clr_country_flag = aelnar_kayd_won
					clr_country_flag = aelnar_dahvar_won
					clr_country_flag = aelnar_aelthanas_won
				}
			}
		}
		if = {
			limit = { tag = Z73 }
			Z43 = {
				define_ruler = {
					name = Dahvar
					dynasty = Siltar
					adm = 4
					dip = 6
					mil = 1
					min_age = 287
					culture = moon_elf
					religion = elven_forebears
					male = yes
					fixed = yes
				}
				hidden_effect = { add_ruler_personality = immortal_personality }
				hidden_effect = {
					set_country_flag = aelnar_dahvar_won
					clr_country_flag = aelnar_lithiel_won
					clr_country_flag = aelnar_kayd_won
					clr_country_flag = aelnar_sicrheior_won
					clr_country_flag = aelnar_aelthanas_won
				}
			}
		}
		if = {
			limit = { tag = Z69 }
			Z43 = {
				define_ruler = {
					name = Lithiel
					dynasty = Oathkeeper
					adm = 2
					dip = 3
					mil = 6
					culture = moon_elf
					religion = elven_forebears
					female = yes
					fixed = yes
					min_age = 169
				}
				hidden_effect = { add_ruler_personality = immortal_personality }
				hidden_effect = {
					set_country_flag = aelnar_lithiel_won
					clr_country_flag = aelnar_dahvar_won
					clr_country_flag = aelnar_kayd_won
					clr_country_flag = aelnar_sicrheior_won
					clr_country_flag = aelnar_aelthanas_won
				}
			}
		}
		hidden_effect = { Z43 = { kill_heir = yes remove_consort = yes } }
		hidden_effect = { country_event = { id = aelnar.105 days = 1 } }
		if = {
			limit = { ai = no }
			switch_tag = Z43
		}
	}
}

### The Heroine Rebellion
country_event = {
	id = aelnar.50
	title = aelnar.50.t
	desc = aelnar.50.d
	picture = THE_HEROINE_eventPicture
	
	mean_time_to_happen = {
		months = 3
	}
	
	trigger = {
		tag = Z43
		has_disaster = aelnar_civil_war
		had_country_flag = {
			flag = lithiel_appear
			days = 1095
		}
		has_leader = "Lithiel Oathkeeper"
	}
	
	immediate = {
		hidden_effect = {
			set_country_flag = lithiel_revolted
			random_owned_province = {
				limit = {
					is_capital = no
					is_in_capital_area = yes
				}
				save_event_target_as = province
				add_core = Z69
				ROOT = { release = Z69 }
				area = {
					limit = { owned_by = ROOT is_capital = no }
					add_core = Z69
				}
			}
			every_owned_province = {
				limit = { is_core = Z69 }
				cede_province = Z69
			}
			kill_leader = { type = "Lithiel Oathkeeper" }
			Z69 = {
				change_primary_culture = moon_elf
				change_religion = elven_forebears
				change_technology_group = tech_elven
				change_unit_type = tech_elven
				define_ruler = {
					name = Lithiel
					dynasty = Oathkeeper
					adm = 2
					dip = 3
					mil = 6
					min_age = 169
					culture = moon_elf
					religion = elven_forebears
					female = yes
					fixed = yes
				}
				hidden_effect = { add_ruler_personality = immortal_personality }
				add_country_modifier = {
					name = aelnar_lithiel_revolt
					duration = 3650
				}
				define_ruler_to_general = {
					fire = 6
					shock = 5
					manuever = 5
					siege = 1
				}
				kill_heir = yes
				rianvisa_starting_army = yes
				rianvisa_declare_war = yes
			}
		}
	}
	
	option = {
        name = aelnar.50.a
        ai_chance = { factor = 100 }
	}
	
	option = {
        name = aelnar.50.b
        ai_chance = { factor = 100 }
		switch_tag = Z69
	}
}

##Fate of Kayd
country_event = {
	id = aelnar.51
	title = aelnar.51.t
	desc = {
		trigger = { has_country_flag = kayd_alive }
		desc = aelnar.51.da
	}
	desc = {
		trigger = { has_country_flag = kayd_dead }
		desc = aelnar.51.de
	}
	picture = GUILLOTINE_eventPicture
	
	fire_only_once = yes
	
	mean_time_to_happen = {
		months = 1
	}
	
	immediate = {
		hidden_effect = {
			random_list = {
				70 = { set_country_flag = kayd_alive }
				30 = { set_country_flag = kayd_dead }
			}
		}
	}
	
	trigger = {
		tag = Z43
		has_country_flag = kayd_revolted
		NOT = { has_country_flag = aelnar_kayd_won }
		NOT = { war_with = Z70 }
	}
	
	option = { # He is dead
        name = aelnar.51.a
        ai_chance = { factor = 100 }
		trigger = { has_country_flag = kayd_dead }
		random = {
			chance = 30
			reduce_stability_or_adm_power = yes
		}
		add_mil_power = 50
	}
	
	option = { #He is Alive, execute him
        name = aelnar.51.b
        ai_chance = { factor = 100 }
		trigger = { has_country_flag = kayd_alive }
		reduce_stability_or_adm_power = yes
		add_mil_power = 150
	}
	
	option = { #He is Alive, imprison him
        name = aelnar.51.c
        ai_chance = { factor = 100 }
		trigger = { has_country_flag = kayd_alive }
		add_country_modifier = {
			name = kayd_in_prison
			duration = 18250
		}
		add_stability_or_adm_power = yes
	}
	
	option = { #He is Alive, exile him
        name = aelnar.51.e
        ai_chance = { factor = 100 }
		trigger = { has_country_flag = kayd_alive }
		add_mil_power = 50
		add_dip_power = 50
		add_adm_power = 50
		hidden_effect = { set_global_flag = kayd_exiled }
	}
}

#New job of Kayd
country_event = {
	id = aelnar.52
	title = aelnar.52.t
	desc = aelnar.52.d
	picture = ARTWORK_eventPicture
	
	mean_time_to_happen = {
		years = 400
		
		modifier = {
			factor = 0.5
			ai = no
		}
		
		modifier = {
			factor = 0.5
			primary_culture = moon_elf
		}
		
		modifier = {
			factor = 0.5
			OR = {
				capital_scope = { continent = europe }
				capital_scope = { continent = africa }
			}
		}
	}

	trigger = {
		has_global_flag = kayd_exiled
		NOT = { has_country_modifier = monstrous_nation }
		NOT = { tag = Z43 }
		NOT = { tag = Z44 }
	}
	
	option = { #Accept him
        name = aelnar.52.a
        ai_chance = { factor = 100 }
		hidden_effect = { clr_global_flag = kayd_exiled set_global_flag = kayd_new_job }
		define_general = {
			name = "Kayd Obaithciall"
			shock = 6
			fire = 6
			manuever = 6
			siege = 5
			trait = ruthless_personality
		}
	}
	
	option = { #Refuse him, he still give you advices
        name = aelnar.52.b
        ai_chance = { factor = 100 }
		add_mil_power = 250
	}
}

##Fate of Sicrheior
country_event = {
	id = aelnar.53
	title = aelnar.53.t
	desc = {
		trigger = { has_country_flag = sicrheior_alive }
		desc = aelnar.53.da
	}
	desc = {
		trigger = { has_country_flag = sicrheior_dead }
		desc = aelnar.53.de
	}
	picture = GUILLOTINE_eventPicture
	
	fire_only_once = yes
	
	mean_time_to_happen = {
		months = 1
	}
	
	immediate = {
		hidden_effect = {
			random_list = {
				70 = { set_country_flag = sicrheior_alive }
				30 = { set_country_flag = sicrheior_dead }
			}
		}
	}
	
	trigger = {
		tag = Z43
		has_country_flag = sicrheior_revolted
		NOT = { has_country_flag = aelnar_sicrheior_won }
		NOT = { war_with = Z72 }
	}
	
	option = { # He is dead
        name = aelnar.53.a
        ai_chance = { factor = 100 }
		trigger = { has_country_flag = sicrheior_dead }
		random = {
			chance = 30
			reduce_stability_or_adm_power = yes
		}
		add_mil_power = 50
	}
	
	option = { #He is Alive, execute him
        name = aelnar.53.b
        ai_chance = { factor = 100 }
		trigger = { has_country_flag = sicrheior_alive }
		reduce_stability_or_adm_power = yes
		add_mil_power = 75
		add_adm_power = 75
	}
	
	option = { #He is Alive, imprison him
        name = aelnar.53.c
        ai_chance = { factor = 100 }
		trigger = { has_country_flag = sicrheior_alive }
		add_country_modifier = {
			name = sicrheior_in_prison
			duration = 18250
		}
		add_stability_or_adm_power = yes
	}
	
	option = { #He is Alive, exile him
        name = aelnar.53.e
        ai_chance = { factor = 100 }
		trigger = { has_country_flag = sicrheior_alive }
		add_mil_power = 50
		add_dip_power = 50
		add_adm_power = 50
		hidden_effect = { set_global_flag = sicrheior_exiled }
	}
}

#New job of Sicrheior
country_event = {
	id = aelnar.54
	title = aelnar.54.t
	desc = aelnar.54.d
	picture = ARTWORK_eventPicture
	
	mean_time_to_happen = {
		years = 400
		
		modifier = {
			factor = 0.5
			ai = no
		}
		
		modifier = {
			factor = 0.5
			primary_culture = moon_elf
		}
		
		modifier = {
			factor = 0.5
			OR = {
				capital_scope = { continent = europe }
				capital_scope = { continent = africa }
			}
		}
	}

	trigger = {
		has_global_flag = sicrheior_exiled
		NOT = { has_country_modifier = monstrous_nation }
		NOT = { tag = Z43 }
		NOT = { tag = Z44 }
	}
	
	option = { #Accept him
        name = aelnar.54.a
        ai_chance = { factor = 100 }
		hidden_effect = { clr_global_flag = sicrheior_exiled set_global_flag = sicrheior_new_job }
		define_advisor = {
			type = commandant
			skill = 4
			name = "Sicrheior Antirdhan"
			culture = moon_elf
			religion = elven_forebears
			discount = yes
			cost_multiplier = 0.5
		}
	}
	
	option = { #Refuse him, he still give you advices
        name = aelnar.54.b
        ai_chance = { factor = 100 }
		add_mil_power = 125
		add_adm_power = 125
	}
}


##Fate of Dahvar
country_event = {
	id = aelnar.55
	title = aelnar.55.t
	desc = {
		trigger = { has_country_flag = dahvar_alive }
		desc = aelnar.55.da
	}
	desc = {
		trigger = { has_country_flag = dahvar_dead }
		desc = aelnar.55.de
	}
	picture = GUILLOTINE_eventPicture
	
	fire_only_once = yes
	
	mean_time_to_happen = {
		months = 1
	}
	
	immediate = {
		hidden_effect = {
			random_list = {
				70 = { set_country_flag = dahvar_alive }
				30 = { set_country_flag = dahvar_dead }
			}
		}
	}
	
	trigger = {
		tag = Z43
		has_country_flag = dahvar_revolted
		NOT = { has_country_flag = aelnar_dahvar_won }
		NOT = { war_with = Z73 }
	}
	
	option = { # He is dead
        name = aelnar.55.a
        ai_chance = { factor = 100 }
		trigger = { has_country_flag = dahvar_dead }
		random = {
			chance = 30
			reduce_stability_or_adm_power = yes
		}
		add_adm_power = 50
	}
	
	option = { #He is Alive, execute him
        name = aelnar.55.b
        ai_chance = { factor = 100 }
		trigger = { has_country_flag = dahvar_alive }
		reduce_stability_or_adm_power = yes
		add_adm_power = 150
	}
	
	option = { #He is Alive, imprison him
        name = aelnar.55.c
        ai_chance = { factor = 100 }
		trigger = { has_country_flag = dahvar_alive }
		add_country_modifier = {
			name = dahvar_in_prison
			duration = 18250
		}
		add_stability_or_adm_power = yes
	}
	
	option = { #He is Alive, exile him
        name = aelnar.55.e
        ai_chance = { factor = 100 }
		trigger = { has_country_flag = dahvar_alive }
		add_mil_power = 50
		add_dip_power = 50
		add_adm_power = 50
		hidden_effect = { set_global_flag = dahvar_exiled }
	}
}

#New job of Dahvar
country_event = {
	id = aelnar.56
	title = aelnar.56.t
	desc = aelnar.56.d
	picture = ARTWORK_eventPicture
	
	mean_time_to_happen = {
		years = 400
		
		modifier = {
			factor = 0.5
			ai = no
		}
		
		modifier = {
			factor = 0.5
			primary_culture = moon_elf
		}
		
		modifier = {
			factor = 0.5
			OR = {
				capital_scope = { continent = europe }
				capital_scope = { continent = africa }
			}
		}
	}

	trigger = {
		has_global_flag = dahvar_exiled
		NOT = { has_country_modifier = monstrous_nation }
		NOT = { tag = Z43 }
		NOT = { tag = Z44 }
	}
	
	option = { #Accept him
        name = aelnar.56.a
        ai_chance = { factor = 100 }
		hidden_effect = { clr_global_flag = dahvar_exiled set_global_flag = dahvar_new_job }
		define_advisor = {
			type = theologian
			skill = 4
			name = "Dahvar Meweri"
			culture = moon_elf
			religion = elven_forebears
			discount = yes
			cost_multiplier = 0.5
		}
	}
	
	option = { #Refuse him, he still give you advices
        name = aelnar.56.b
        ai_chance = { factor = 100 }
		add_dip_power = 125
		add_adm_power = 125
	}
}

##Fate of Aelthanas
country_event = {
	id = aelnar.57
	title = aelnar.57.t
	desc = {
		trigger = { has_country_flag = aelthanas_alive }
		desc = aelnar.57.da
	}
	desc = {
		trigger = { has_country_flag = aelthanas_dead }
		desc = aelnar.57.de
	}
	picture = GUILLOTINE_eventPicture
	
	fire_only_once = yes
	
	mean_time_to_happen = {
		months = 1
	}
	
	immediate = {
		hidden_effect = {
			random_list = {
				70 = { set_country_flag = aelthanas_alive }
				30 = { set_country_flag = aelthanas_dead }
			}
		}
	}
	
	trigger = {
		tag = Z43
		has_country_flag = aelthanas_revolted
		NOT = { has_country_flag = aelnar_aelthanas_won }
		NOT = { war_with = Z71 }
	}
	
	option = { # He is dead
        name = aelnar.57.a
        ai_chance = { factor = 100 }
		trigger = { has_country_flag = aelthanas_dead }
		random = {
			chance = 30
			reduce_stability_or_adm_power = yes
		}
		add_adm_power = 50
	}
	
	option = { #He is Alive, execute him
        name = aelnar.57.b
        ai_chance = { factor = 100 }
		trigger = { has_country_flag = aelthanas_alive }
		reduce_stability_or_adm_power = yes
		add_adm_power = 150
	}
	
	option = { #He is Alive, imprison him
        name = aelnar.57.c
        ai_chance = { factor = 100 }
		trigger = { has_country_flag = aelthanas_alive }
		add_country_modifier = {
			name = aelthanas_in_prison
			duration = 18250
		}
		add_stability_or_adm_power = yes
	}
	
	option = { #He is Alive, exile him
        name = aelnar.57.e
        ai_chance = { factor = 100 }
		trigger = { has_country_flag = aelthanas_alive }
		add_mil_power = 50
		add_dip_power = 50
		add_adm_power = 50
		hidden_effect = { set_global_flag = aelthanas_exiled }
	}
}

#New job of Aelthanas
country_event = {
	id = aelnar.58
	title = aelnar.58.t
	desc = aelnar.58.d
	picture = ARTWORK_eventPicture
	
	mean_time_to_happen = {
		years = 400
		
		modifier = {
			factor = 0.5
			ai = no
		}
		
		modifier = {
			factor = 0.5
			primary_culture = moon_elf
		}
		
		modifier = {
			factor = 0.5
			OR = {
				capital_scope = { continent = europe }
				capital_scope = { continent = africa }
			}
		}
	}

	trigger = {
		has_global_flag = aelthanas_exiled
		NOT = { has_country_modifier = monstrous_nation }
		NOT = { tag = Z43 }
		NOT = { tag = Z44 }
	}
	
	option = { #Accept him
        name = aelnar.58.a
        ai_chance = { factor = 100 }
		hidden_effect = { clr_global_flag = aelthanas_exiled set_global_flag = aelthanas_new_job }
		define_advisor = {
			type = diplomat
			skill = 4
			name = "Aelthanas Rialpruin"
			culture = moon_elf
			religion = elven_forebears
			discount = yes
			cost_multiplier = 0.5
		}
	}
	
	option = { #Refuse him, he still give you advices
        name = aelnar.58.b
        ai_chance = { factor = 100 }
		add_dip_power = 125
		add_adm_power = 125
	}
}

#Petty noble ask for autonomy amidst the chaos
country_event = {
	id = aelnar.59
	title = aelnar.59.t
	desc = aelnar.59.d
	picture = ADULT_BAPTISME_eventPicture
	goto = province
	mean_time_to_happen = {
		years = 3
	}
	
	immediate = {
		hidden_effect = {
			random_owned_province = {
				limit = { controlled_by = ROOT is_capital = no owned_by = ROOT }
				save_event_target_as = province
			}
		}
	}

	trigger = {
		tag = Z43
		has_disaster = aelnar_civil_war
		has_country_flag = aelnar_faction_war
		any_owned_province = { controlled_by = ROOT is_capital = no owned_by = ROOT }
	}
	
	option = { #Let them revolt
        name = aelnar.59.a
        ai_chance = { factor = 100 }
		event_target:province = {
			spawn_rebels = {
				type = noble_rebels
				size = 4
			}
		}
		aelnar_little_angry_sicrheior = yes
	}
	
	option = { #Give dem autonomy
        name = aelnar.59.b
        ai_chance = { factor = 100 }
		event_target:province = {
			add_local_autonomy = 50
		}
		add_adm_power = -25
		add_dip_power = -25
		aelnar_little_angry_aelthanas = yes
	}
}

#Soldiers steal shit in the countryside
country_event = {
	id = aelnar.60
	title = aelnar.60.t
	desc = aelnar.60.d
	picture = NOT_DISCIPLINED_SOLDIERS_eventPicture
	goto = province
	mean_time_to_happen = {
		years = 2
	}
	
	immediate = {
		random_owned_province = {
			limit = { controlled_by = ROOT is_capital = no owned_by = ROOT }
			save_event_target_as = province
		}
	}

	trigger = {
		tag = Z43
		has_disaster = aelnar_civil_war
		has_country_flag = aelnar_faction_war
		any_owned_province = { controlled_by = ROOT is_capital = no owned_by = ROOT }
	}
	
	option = { #Let them steal
        name = aelnar.60.a
        ai_chance = { factor = 100 }
		event_target:province = {
			spawn_rebels = {
				type = anti_tax_rebels
				size = 3
			}
		}
		aelnar_little_happy_kayd = yes
		aelnar_little_angry_aelthanas = yes
	}
	
	option = { #Never
        name = aelnar.60.b
        ai_chance = { factor = 100 }
		event_target:province = {
			add_local_autonomy = 50
		}
		add_adm_power = -25
		add_dip_power = -25
		aelnar_little_angry_kayd = yes
	}
}

#Rattling their saber
country_event = {
	id = aelnar.61
	title = aelnar.61.t
	desc = aelnar.61.d
	picture = CIVIL_WAR_eventPicture
	goto = province
	mean_time_to_happen = {
		years = 3
	}

	trigger = {
		tag = Z43
		has_disaster = aelnar_civil_war
		has_country_flag = aelnar_faction_war
		NOT = {
			has_country_flag = kayd_revolted
			has_country_flag = sicrheior_revolted
		}
	}
	
	option = { #Stupid quarrel
        name = aelnar.61.a
        ai_chance = { factor = 100 }
		random_list = {
			25 = { aelnar_little_angry_sicrheior = yes }
			25 = { aelnar_little_angry_kayd = yes }
			25 = { aelnar_little_angry_kayd = yes aelnar_little_angry_sicrheior = yes }
			25 = { reduce_stability_or_adm_power = yes }
		}
	}
}

													### End of Civil war Event

##Give province to Silblaidd
country_event = {
	id = aelnar.10
	title = aelnar.10.t
	desc = aelnar.10.d
	picture = ARTWORK_eventPicture
	
	mean_time_to_happen = {
		years = 1
	}
	
	trigger = {
		tag = Z43
		overlord_of = Z44
		exists = Z44
		any_owned_province = {
			is_city = yes
			colonial_region = colonial_haraf
		}
	}
	
	option = {
        name = aelnar.10.a
        ai_chance = { factor = 100 }
		every_owned_province = {
			limit = { 
				colonial_region = colonial_haraf
				is_city = yes
			}
			
			remove_claim = ROOT
			remove_core = ROOT
			add_core = Z44
			cede_province = Z44
		}
	}
}


## Culture conversion event
country_event = {
	id = aelnar.11
	title = aelnar.11.t
	desc = aelnar.11.d
	picture = ARTWORK_eventPicture
	
	mean_time_to_happen = {
		years = 25
		
		modifier = {
			factor = 0.3 
			
			ai = yes
		}
	}
	
	trigger = {
		tag = Z43
		primary_culture = star_elf
		any_owned_province = {
			culture = moon_elf
		}
	}
	
	option = {
        name = aelnar.11.a
        ai_chance = { factor = 100 }
		random_owned_province = {
			limit = { culture = moon_elf }
			change_culture = star_elf
		}
	}
}

# Religious conversion event
country_event = {
	id = aelnar.12
	title = aelnar.12.t
	desc = aelnar.12.d
	picture = ARTWORK_eventPicture
	
	is_triggered_only = yes
	
	trigger = {
		always = yes
	}
	
	option = {
        name = aelnar.12.a
        ai_chance = { factor = 100 }
		change_religion = soise_vio
		set_ruler_religion = soise_vio
		set_heir_religion = soise_vio
		hidden_effect = {
			every_owned_province = {
				random = {
					chance = 90
					
					change_religion = soise_vio
				}
			}
		}
	}
}


# Choice of decade_philosophy
country_event = {
	id = aelnar.22
	title = aelnar.22.t
	desc = aelnar.22.d
	picture = ARTWORK_eventPicture
	
	mean_time_to_happen = {
		days = 10
	}
	
	trigger = {
		NOT = { has_country_flag = soise_vio_path }
		religion = soise_vio
	}
	
	immediate = {
		set_country_flag = soise_vio_path
	}
	
	option = {
        name = aelnar.22.a
        ai_chance = { factor = 100 }
		custom_tooltip = kayd_tooltip
		change_personal_deity = kayd_path # War
		hidden_effect = {
			country_event = { id = aelnar.23 days = 3650 }
		}
	}
	
	option = {
        name = aelnar.22.b
        ai_chance = { factor = 100 }
		custom_tooltip = sicrheior_tooltip
		change_personal_deity = sicrheior_path # colonial
		hidden_effect = {
			country_event = { id = aelnar.23 days = 3650 }
		}
	}
	
	option = {
        name = aelnar.22.c
        ai_chance = { factor = 100 }
		custom_tooltip = dahvar_tooltip
		change_personal_deity = dahvar_path # religion
		hidden_effect = {
			country_event = { id = aelnar.23 days = 3650 }
		}
	}
	
	option = {
        name = aelnar.22.e
        ai_chance = { factor = 100 }
		custom_tooltip = aelthanas_tooltip
		change_personal_deity = aelthanas_path #production
		hidden_effect = {
			country_event = { id = aelnar.23 days = 3650 }
		}
	}
	
	option = {
        name = aelnar.22.f
        ai_chance = { factor = 100 }
		custom_tooltip = aist_tooltip
		change_personal_deity = aist_cantir_path # trade
		hidden_effect = {
			country_event = { id = aelnar.23 days = 3650 }
		}
	}
	
	option = {
        name = aelnar.22.g
        ai_chance = { factor = 100 }
		custom_tooltip = dea_tooltip
		change_personal_deity = dea_cithe_path #stability
		hidden_effect = {
			country_event = { id = aelnar.23 days = 3650 }
		}
	}
}

country_event = {
	id = aelnar.23
	title = aelnar.23.t
	desc = aelnar.23.d
	picture = ARTWORK_eventPicture
	
	is_triggered_only = yes
	hidden = yes
	
	trigger = {
		always = yes
	}
	
	option = {
        name = aelnar.23.a
        ai_chance = { factor = 100 }
		clr_country_flag = soise_vio_path
	}
}

###Lithiel Events
##Lithiel Future
country_event = {
	id = aelnar.24
	title = aelnar.24.t
	desc = aelnar.24.d
	picture = THE_HEROINE_eventPicture
	
	is_triggered_only = yes
	
	trigger = {
		NOT = { has_ruler = "Lithiel" }
		has_country_flag = lithiel_revolted
	}
	#Imprison her
	option = {
        name = aelnar.24.a
        ai_chance = { factor = 100 }
		add_country_modifier = {
			name = aelnar_lithiel_in_prison
			duration = -1
		}
		hidden_effect = { set_country_flag = aelnar_lithiel_in_prison_flag }
		hidden_effect = { country_event = { id = aelnar.36 days = 54750 } }
	}
	#Execute her
	option = {
        name = aelnar.24.b
        ai_chance = { factor = 100 }
		add_stability = -2
		reduce_legitimacy_medium_effect = yes
	}
	#The first Lady
	option = {
        name = aelnar.24.c
        ai_chance = { factor = 100 }
		add_stability_or_adm_power = yes
		add_prestige = 10
		increase_legitimacy_medium_effect = yes
		remove_consort = yes
		define_consort = {
			name = Lithiel
			age = 178
			female = yes
			adm = 2
			dip = 3
			mil = 6
			max_random_adm = 2
			max_random_dip = 3
			max_random_mil = 6
			dynasty = original_dynasty
			hide_skills = yes
		}
		hidden_effect = { 
			add_queen_personality = immortal_personality
			set_country_flag = lithiel_is_consort
		}
	}
}
#Does she assume power at monarch death
country_event = {
	id = aelnar.25
	title = aelnar.25.t
	desc = aelnar.25.d
	picture = ARTWORK_eventPicture
	
	is_triggered_only = yes
	fire_only_once = yes
	
	trigger = {
		tag = Z43
		has_country_flag = lithiel_is_consort
	}
	
	#She become queen
	option = {
        name = aelnar.25.a
        ai_chance = { factor = 100 }
		add_stability_or_adm_power = yes
		tooltip = {
			define_ruler = {
				name = Lithiel
				dynasty = original_dynasty
				adm = 2
				dip = 3
				mil = 6
				fixed = yes
				culture = ROOT
				female = yes
			}
		}
		hidden_effect = {
			define_ruler = {
				name = Lithiel
				dynasty = original_dynasty
				adm = 2
				dip = 3
				mil = 6
				max_random_adm = 2
				max_random_dip = 3
				max_random_mil = 6
				min_age = 169
				culture = ROOT
				female = yes
			}
			hidden_effect = { add_ruler_personality = immortal_personality }
		}
		hidden_effect = { country_event = { id = aelnar.27 days = 30 } } #assume absolute power
	}
	
	#No
	option = {
        name = aelnar.25.b
        ai_chance = { factor = 100 }
		reduce_stability_or_adm_power = yes
		hidden_effect = { set_country_flag = lithiel_retire }
	}
}

#Centralize country, lithiel on the throne
country_event = {
	id = aelnar.26
	title = aelnar.26.t
	desc = aelnar.26.d
	picture = ARTWORK_eventPicture
	
	is_triggered_only = yes
	
	trigger = {
		always = yes
	}
	
	#She become queen
	option = {
        name = aelnar.26.a
        ai_chance = { factor = 100 }
		add_stability_or_adm_power = yes
		tooltip = {
			define_ruler = {
				name = Lithiel
				dynasty = original_dynasty
				adm = 2
				dip = 3
				mil = 6
				fixed = yes
				culture = ROOT
				female = yes
			}
		}
		hidden_effect = {
			define_heir = {
				name = Lithiel
				dynasty = original_dynasty
				birth_date = 1374.4.23
				adm = 2
				dip = 3
				mil = 6
				max_random_adm = 2
				max_random_dip = 3
				max_random_mil = 6
				culture = ROOT
				female = yes
			}
			kill_ruler = yes
			add_stability = 1
		}
		hidden_effect = { country_event = { id = aelnar.27 days = 30 } }
	}
}

#Assume absolute power over the country
country_event = {
	id = aelnar.27
	title = aelnar.27.t
	desc = aelnar.27.d
	picture = ARTWORK_eventPicture
	
	is_triggered_only = yes
	
	trigger = {
		always = yes
	}
	
	#She's given full control over the country due to the trust and popularity of herself
	option = {
        name = aelnar.27.a
        ai_chance = { factor = 100 }
		add_stability_or_adm_power = yes
		increase_legitimacy_large_effect = yes
		add_ruler_modifier = {
			name = aelnar_lithiel_rule
			duration = -1
		}
		hidden_effect = { country_event = { id = aelnar.28 days = 3650 } }
	}
}

#Lithiel struggle
country_event = {
	id = aelnar.28
	title = aelnar.28.t
	desc = aelnar.28.d
	picture = ARTWORK_eventPicture
	
	is_triggered_only = yes
	
	trigger = {
		has_ruler_modifier = aelnar_lithiel_rule
	}
	
	option = {
        name = aelnar.28.a
        ai_chance = { factor = 100 }
		hidden_effect = { country_event = { id = aelnar.29 days = 2555 } }
	}
}

#Lithiel folly
country_event = {
	id = aelnar.29
	title = aelnar.29.t
	desc = aelnar.29.d
	picture = ARTWORK_eventPicture
	
	is_triggered_only = yes
	
	trigger = {
		has_ruler_modifier = aelnar_lithiel_rule
	}
	
	option = {
        name = aelnar.29.a
        ai_chance = { factor = 100 }
		change_mil = -6
		change_adm = -6
		change_dip = -6
		country_event = { id = aelnar.30 days = 180 random = 60 }
	}
}

#Assassination attempt
country_event = {
	id = aelnar.30
	title = aelnar.30.t
	desc = aelnar.30.d
	picture = ARTWORK_eventPicture
	
	is_triggered_only = yes
	
	trigger = {
		has_ruler_modifier = aelnar_lithiel_rule
	}
	
	#success, poison in her sleep
	option = {
        name = aelnar.30.a
        ai_chance = { factor = 100 }
		kill_ruler = yes
	}
	
	option = {
        name = aelnar.30.b
        ai_chance = { factor = 100 }
		country_event = { id = aelnar.31 } #The Ice Fall
	}
}

#The Ice Fall
country_event = {
	id = aelnar.31
	title = aelnar.31.t
	desc = aelnar.31.d
	picture = ARTWORK_eventPicture
	
	is_triggered_only = yes
	
	trigger = {
		has_ruler_modifier = aelnar_lithiel_rule
	}
	
	#Elissa take control, destruction of Arca Ore
	option = {
        name = aelnar.31.a
        ai_chance = { factor = 100 }
		capital_scope = { remove_province_modifier = aelnar_arca_ore }
		tooltip = {
			define_ruler = {
				name = Elissa
				dynasty = original_dynasty
				dip = 4
				adm = 5
				mil = 6
				fixed = yes
				female = yes
			}
		}
		hidden_effect = {
			define_heir = {
				name = Elissa
				dynasty = original_dynasty
				birth_date = 1374.4.23
				dip = 4
				adm = 5
				mil = 6
				max_random_adm = 4
				max_random_dip = 2
				max_random_mil = 6
				female = yes
			}
			kill_ruler = yes
			add_stability = 1
		}
		add_ruler_personality = mage_personality
		hidden_effect = {
			set_ruler_flag = evocation_1
			set_ruler_flag = evocation_2
			set_ruler_flag = evocation_3
		}
		hidden_effect = { country_event = { id = aelnar.32 days = 365 } }
	}
}

#The Crystal Queen
country_event = {
	id = aelnar.32
	title = aelnar.32.t
	desc = aelnar.32.d
	picture = ARTWORK_eventPicture
	
	is_triggered_only = yes
	
	trigger = {
		has_ruler = "Elissa"
	}
	
	option = {
        name = aelnar.32.a
        ai_chance = { factor = 100 }
		add_ruler_modifier = {
			name = aelnar_the_crystal_queen
			duration = -1
		}
		hidden_effect = { country_event = { id = aelnar.33 days = 365 } }
	}
}

#The Icy Ambitions
country_event = {
	id = aelnar.33
	title = aelnar.33.t
	desc = aelnar.33.d
	picture = ARTWORK_eventPicture
	
	is_triggered_only = yes
	
	trigger = {
		has_ruler = "Elissa"
	}
	
	option = {
        name = aelnar.33.a
        ai_chance = { factor = 100 }
		add_country_modifier = {
			name = aelnar_icy_ambitions
			duration = -1
		}
		swap_non_generic_missions = yes
	}
}

#The Lady Retire
country_event = {
	id = aelnar.34
	title = aelnar.34.t
	desc = aelnar.34.d
	picture = ARTWORK_eventPicture
	
	fire_only_once = yes
	mean_time_to_happen = {
		days = 1
	}
	
	trigger = {
		tag = Z43
		has_country_flag = lithiel_retire
		NOT = {
			has_leader = "Lithiel"
			has_ruler = "Lithiel"
		}
	}
	
	option = {
        name = aelnar.34.a
        ai_chance = { factor = 100 }
		add_prestige = 5
		hidden_effect = { clr_country_flag = lithiel_retire }
	}
}

#Nur Meweri
country_event = {
	id = aelnar.35
	title = aelnar.35.t
	desc = aelnar.35.d
	picture = ARTWORK_eventPicture
	
	is_triggered_only = yes
	
	trigger = {
		always = yes
	}
	
	option = {
        name = aelnar.35.a
        ai_chance = { factor = 100 }
		increase_legitimacy_medium_effect = yes
		add_prestige = 15
		add_stability_or_adm_power = yes
		2787 = {
			add_permanent_province_modifier = {
				name = aelnar_nur_meweri
				duration = -1
			}
			add_center_of_trade_level = 1
			if = {
				limit = {
					NOT = { trade_goods = gems }
					NOT = { trade_goods = gold }
					NOT = { trade_goods = damestear }
					NOT = { trade_goods = precursor_relics }
				}
				change_trade_goods = glass
			}
			add_base_manpower = 3
			add_base_tax = 3
			add_base_production = 3
		}
	}
}
##She purged her sentence
country_event = {
	id = aelnar.36
	title = aelnar.36.t
	desc = aelnar.36.d
	picture = ARTWORK_eventPicture
	
	is_triggered_only = yes
	
	trigger = {
		has_country_modifier = aelnar_lithiel_in_prison
	}
	
	option = {
        name = aelnar.36.a
        ai_chance = { factor = 100 }
		remove_country_modifier = aelnar_lithiel_in_prison
		hidden_effect = { set_country_flag = lithiel_retire }
	}
}

##Lithiel escape prison
country_event = {
	id = aelnar.37
	title = aelnar.37.t
	desc = aelnar.37.d
	picture = ARTWORK_eventPicture
	
	mean_time_to_happen = {
		years = 200
	}
	
	trigger = {
		tag = Z43
		has_country_modifier = aelnar_lithiel_in_prison
	}
	
	option = {
        name = aelnar.37.a
        ai_chance = { factor = 100 }
		remove_country_modifier = aelnar_lithiel_in_prison
		hidden_effect = { set_global_flag = lithiel_escape }
	}
}

##Elven country can recruit her
country_event = {
	id = aelnar.38
	title = aelnar.38.t
	desc = aelnar.38.d
	picture = ARTWORK_eventPicture
	
	mean_time_to_happen = {
		years = 5
		
		modifier = {
			factor = 0.2
			ai = no
		}
	}
	
	trigger = {
		has_global_flag = lithiel_escape
		has_country_modifier = elven_administration
		NOT = { has_country_flag = lithiel_event }
	}
	
	immediate = {
		hidden_effect = { set_country_flag = lithiel_event }
	}
	
	#Accept her
	option = {
        name = aelnar.38.a
        ai_chance = { factor = 100 }
		add_trust = {
			who = Z43
			value = -25
		}
		define_general = {
			name = "Lithiel"
			female = yes
			shock = 4
			fire = 6
			manuever = 5
			siege = 2
		}
		hidden_effect = { clr_global_flag = lithiel_escape }
	}
	#We don't want her
	option = {
        name = aelnar.38.b
        ai_chance = { factor = 100 }
		add_prestige = 5
	}
}
#The Turning Point
country_event = {
	id = aelnar.39
	title = aelnar.39.t
	desc = aelnar.39.d
	picture = ARTWORK_eventPicture
	
	is_triggered_only = yes
	
	trigger = {
		tag = Z43
		has_reform = enlightened_empire_reform
		NOT = { has_country_flag = turning_point_flag }
		NOT = { has_country_flag = aelnar_civil_war_end }
	}
	
	immediate = {
		hidden_effect = { set_country_flag = turning_point_flag }
	}
	
	#Choose Lithiel
	option = {
        name = aelnar.39.a
        ai_chance = { factor = 100 }
		define_ruler = {
			name = "Lithiel"
			dynasty = "Starseeker"
			adm = 3
			dip = 3
			mil = 6
			fixed = yes
			female = yes
		}
		country_event = { id = aelnar.40 days = 100 random = 50 }
		custom_tooltip = lithiel_choice_tooltip
	}
	
	#Choose Calasandur
	option = {
        name = aelnar.39.b
        ai_chance = { factor = 100 }
		define_ruler = {
			name = "Calasandur"
			dynasty = "Starseeker"
			adm = 5
			dip = 5
			mil = 5
			fixed = yes
			male = yes
		}
		country_event = { id = aelnar.41 days = 100 random = 50 }
		custom_tooltip = calasandur_choice_tooltip
	}
}

##Lithiel ideas
country_event = {
	id = aelnar.40
	title = aelnar.40.t
	desc = aelnar.40.d
	picture = ARTWORK_eventPicture
	
	is_triggered_only = yes
	
	trigger = {
		has_ruler = "Lithiel"
	}
	
	option = {
        name = aelnar.40.a
        ai_chance = { factor = 100 }
		hidden_effect = { set_country_flag = lithiel_ideas }
		swap_non_generic_missions = yes
	}
}

##An eye in every city
country_event = {
	id = aelnar.41
	title = aelnar.41.t
	desc = aelnar.41.d
	picture = ARTWORK_eventPicture
	
	is_triggered_only = yes
	
	trigger = {
		has_ruler = "Calasandur"
	}
	
	option = {
        name = aelnar.41.a
        ai_chance = { factor = 100 }
		hidden_effect = { set_country_flag = an_eye_in_every_city }
		swap_non_generic_missions = yes
	}
}

##Ruinborn to Duskers
country_event = {
	id = aelnar.42
	title = aelnar.42.t
	desc = aelnar.42.d
	picture = ARTWORK_eventPicture
	goto = dusker_province
	
	mean_time_to_happen = {
		years = 2
	}
	
	trigger = {
		tag = Z43
		has_country_flag = duskers_flag
		any_owned_province = {
			has_ruinborn_culture = yes
		}
	}
	
	immediate = {
		hidden_effect = {
			random_owned_province = {
				limit = {
					has_ruinborn_culture = yes
				}
				save_event_target_as = dusker_province
			}
		}
	}
	
	option = {
        name = aelnar.42.a
        ai_chance = { factor = 100 }
		event_target:dusker_province = {
			change_culture = duskers
		}
	}
}

##Duskers to Starborn
country_event = {
	id = aelnar.43
	title = aelnar.43.t
	desc = aelnar.43.d
	picture = ARTWORK_eventPicture
	goto = starborn_province
	
	mean_time_to_happen = {
		years = 5
	}
	
	trigger = {
		tag = Z43
		has_country_flag = starborn_flag
		any_owned_province = { culture = duskers }
	}
	
	immediate = {
		hidden_effect = {
			random_owned_province = {
				limit = {
					culture = duskers
				}
				save_event_target_as = starborn_province
			}
		}
	}
	
	option = {
        name = aelnar.43.a
        ai_chance = { factor = 100 }
		event_target:starborn_province = {
			change_culture = starborn
			random = {
				chance = 33
				add_base_tax = 1
			}
		}
	}
}

################
### Thing to help the AI
################
#Temple on Cas Colunn (formerly timucua)
country_event = {
	id = aelnar.100
	title = aelnar.100.t
	desc = aelnar.100.d
	picture = ARTWORK_eventPicture
	
	fire_only_once = yes
	
	mean_time_to_happen = {
		days = 720
	}
	
	trigger = {
		tag = Z43
		ai = yes
		silsenald_isles_area  = {
			type = all
			owned_by = ROOT
		}
	}
	
	option = {
        name = aelnar.100.a
        ai_chance = { factor = 100 }
		925 = {
			add_building = temple
		}
		926 = {
			add_building = temple
		}
		927 = {
			add_building = temple
		}
	}
}

# Conquest Aelnar
country_event = {
	id = aelnar.101
	title = aelnar.100.t
	desc = aelnar.100.d
	picture = ARTWORK_eventPicture
	
	fire_only_once = yes
	
	mean_time_to_happen = {
		years = 5
	}
	
	trigger = {
		tag = Z43
		ai = yes
		is_year = 1620
		NOT = { personality = ai_militarist }
	}
	
	option = {
        name = aelnar.100.a
        ai_chance = { factor = 100 }
		set_ai_personality = {
			 personality = ai_militarist
			 locked = yes
		}
	}
}

country_event = {
	id = aelnar.103
	title = aelnar.100.t
	desc = aelnar.100.d
	picture = ARTWORK_eventPicture
	
	is_triggered_only = yes
	hidden = yes
	
	trigger = {
		always = yes
	}
	
	option = {
        name = aelnar.100.a
        ai_chance = { factor = 100 }
		hidden_effect = {
			random_list = {
				25 = {
					change_variable = {
						which = variable:nbConnadh
						value = 118
					}
				}
				25 = {
					change_variable = {
						which = variable:nbConnadh
						value = 218
					}
				}
				25 = {
					change_variable = {
						which = variable:nbConnadh
						value = 317
					}
				}
				25 = {
					change_variable = {
						which = variable:nbConnadh
						value = 411
					}
				}
			}
		}
	}
}

country_event = {
	id = aelnar.104
	title = aelnar.104.t
	desc = aelnar.104.d
	picture = ARTWORK_eventPicture
	
	is_triggered_only = yes
	hidden = yes
	
	trigger = {
		NOT = { has_country_flag = aelnar_rianvisa_po_debug }
	}
	
	immediate = {
		set_country_flag = aelnar_rianvisa_po_debug
	}
	
	option = {
        name = aelnar.104.a
        ai_chance = { factor = 100 }
		every_owned_province = {
			remove_core = ROOT
			cede_province = Z43
		}
		FROM = {
			if = {
				limit = { NOT = { tag = Z43 } }
				add_treasury = 500
				add_manpower = 15
			}
			else = {
				add_treasury = 250
				add_manpower = 7
			}
		}
	}
}

country_event = {
	id = aelnar.105
	title = aelnar.105.t
	desc = aelnar.105.d
	picture = ARTWORK_eventPicture
	
	is_triggered_only = yes
	hidden = yes
	
	trigger = {
		always = yes
	}
	
	option = {
        name = aelnar.105.a
        ai_chance = { factor = 100 }
		every_owned_province = {
			remove_core = ROOT
			cede_province = Z43
		}
	}
}
