namespace = magic_realm

#Magic Menu
country_event = {
	id = magic_realm.0
	title = magic_realm.0.t	#Have this title mention the target
	picture = BIG_BOOK_eventPicture
	desc = magic_realm.0.d
	
	is_triggered_only = yes
	
	option = {
		name = magic_study.0.a
		highlight = yes
		ai_chance = {
			factor = 50
		}
		
		close_single_menu = yes
		
		if = {
			limit = {	
				NOT = { has_ruler_flag = abjuration_1 }
				NOT = { has_ruler_flag = abjuration_2 }
				NOT = { has_ruler_flag = abjuration_3 }
			}
			custom_tooltip = tooltip_has_abjuration_0 
		}
		if = {
			limit = {	
				has_ruler_flag = abjuration_1
				NOT = { has_ruler_flag = abjuration_2 }
				NOT = { has_ruler_flag = abjuration_3 }
			}
			custom_tooltip = tooltip_has_abjuration_1 
		}
		if = {
			limit = {	
				has_ruler_flag = abjuration_2
				NOT = { has_ruler_flag = abjuration_3 }
			}
			custom_tooltip = tooltip_has_abjuration_2 
		}
		if = {
			limit = {	
				has_ruler_flag = abjuration_3
			}
			custom_tooltip = tooltip_has_abjuration_3 
		}
		if = {
			limit = {	
				NOT = { has_ruler_flag = conjuration_1 }
				NOT = { has_ruler_flag = conjuration_2 }
				NOT = { has_ruler_flag = conjuration_3 }
			}
			custom_tooltip = tooltip_has_conjuration_0 
		}
		if = {
			limit = {	
				has_ruler_flag = conjuration_1
				NOT = { has_ruler_flag = conjuration_2 }
				NOT = { has_ruler_flag = conjuration_3 }
			}
			custom_tooltip = tooltip_has_conjuration_1 
		}
		if = {
			limit = {	
				has_ruler_flag = conjuration_2
				NOT = { has_ruler_flag = conjuration_3 }
			}
			custom_tooltip = tooltip_has_conjuration_2 
		}
		if = {
			limit = {	
				has_ruler_flag = conjuration_3
			}
			custom_tooltip = tooltip_has_conjuration_3 
		}
		
		if = {
			limit = {	
				NOT = { has_ruler_flag = divination_1 }
				NOT = { has_ruler_flag = divination_2 }
				NOT = { has_ruler_flag = divination_3 }
			}
			custom_tooltip = tooltip_has_divination_0
		}
		if = {
			limit = {	
				has_ruler_flag = divination_1
				NOT = { has_ruler_flag = divination_2 }
				NOT = { has_ruler_flag = divination_3 }
			}
			custom_tooltip = tooltip_has_divination_1 
		}
		if = {
			limit = {	
				has_ruler_flag = divination_2
				NOT = { has_ruler_flag = divination_3 }
			}
			custom_tooltip = tooltip_has_divination_2 
		}
		if = {
			limit = {	
				has_ruler_flag = divination_3
			}
			custom_tooltip = tooltip_has_divination_3 
		}
		
		if = {
			limit = {	
				NOT = { has_ruler_flag = enchantment_1 }
				NOT = { has_ruler_flag = enchantment_2 }
				NOT = { has_ruler_flag = enchantment_3 }
			}
			custom_tooltip = tooltip_has_enchantment_0 
		}
		if = {
			limit = {	
				has_ruler_flag = enchantment_1
				NOT = { has_ruler_flag = enchantment_2 }
				NOT = { has_ruler_flag = enchantment_3 }
			}
			custom_tooltip = tooltip_has_enchantment_1 
		}
		if = {
			limit = {	
				has_ruler_flag = enchantment_2
				NOT = { has_ruler_flag = enchantment_3 }
			}
			custom_tooltip = tooltip_has_enchantment_2 
		}
		if = {
			limit = {	
				has_ruler_flag = enchantment_3
			}
			custom_tooltip = tooltip_has_enchantment_3 
		}
		
		if = {
			limit = {	
				NOT = { has_ruler_flag = evocation_1 }
				NOT = { has_ruler_flag = evocation_2 }
				NOT = { has_ruler_flag = evocation_3 }
			}
			custom_tooltip = tooltip_has_evocation_0 
		}
		if = {
			limit = {	
				has_ruler_flag = evocation_1
				NOT = { has_ruler_flag = evocation_2 }
				NOT = { has_ruler_flag = evocation_3 }
			}
			custom_tooltip = tooltip_has_evocation_1 
		}
		if = {
			limit = {	
				has_ruler_flag = evocation_2
				NOT = { has_ruler_flag = evocation_3 }
			}
			custom_tooltip = tooltip_has_evocation_2 
		}
		if = {
			limit = {	
				has_ruler_flag = evocation_3
			}
			custom_tooltip = tooltip_has_evocation_3 
		}
		
		if = {
			limit = {	
				NOT = { has_ruler_flag = illusion_1 }
				NOT = { has_ruler_flag = illusion_2 }
				NOT = { has_ruler_flag = illusion_3 }
			}
			custom_tooltip = tooltip_has_illusion_0 
		}
		if = {
			limit = {	
				has_ruler_flag = illusion_1
				NOT = { has_ruler_flag = illusion_2 }
				NOT = { has_ruler_flag = illusion_3 }
			}
			custom_tooltip = tooltip_has_illusion_1 
		}
		if = {
			limit = {	
				has_ruler_flag = illusion_2
				NOT = { has_ruler_flag = illusion_3 }
			}
			custom_tooltip = tooltip_has_illusion_2 
		}
		if = {
			limit = {	
				has_ruler_flag = illusion_3
			}
			custom_tooltip = tooltip_has_illusion_3 
		}
		
		if = {
			limit = {	
				NOT = { has_ruler_flag = necromancy_1 }
				NOT = { has_ruler_flag = necromancy_2 }
				NOT = { has_ruler_flag = necromancy_3 }
			}
			custom_tooltip = tooltip_has_necromancy_0 
		}
		if = {
			limit = {	
				has_ruler_flag = necromancy_1
				NOT = { has_ruler_flag = necromancy_2 }
				NOT = { has_ruler_flag = necromancy_3 }
			}
			custom_tooltip = tooltip_has_necromancy_1 
		}
		if = {
			limit = {	
				has_ruler_flag = necromancy_2
				NOT = { has_ruler_flag = necromancy_3 }
			}
			custom_tooltip = tooltip_has_necromancy_2 
		}
		if = {
			limit = {	
				has_ruler_flag = necromancy_3
			}
			custom_tooltip = tooltip_has_necromancy_3 
		}
		
		if = {
			limit = {	
				NOT = { has_ruler_flag = transmutation_1 }
				NOT = { has_ruler_flag = transmutation_2 }
				NOT = { has_ruler_flag = transmutation_3 }
			}
			custom_tooltip = tooltip_has_transmutation_0 
		}
		if = {
			limit = {	
				has_ruler_flag = transmutation_1
				NOT = { has_ruler_flag = transmutation_2 }
				NOT = { has_ruler_flag = transmutation_3 }
			}
			custom_tooltip = tooltip_has_transmutation_1 
		}
		if = {
			limit = {	
				has_ruler_flag = transmutation_2
				NOT = { has_ruler_flag = transmutation_3 }
			}
			custom_tooltip = tooltip_has_transmutation_2 
		}
		if = {
			limit = {	
				has_ruler_flag = transmutation_3
			}
			custom_tooltip = tooltip_has_transmutation_3 
		}
	}
	
	
	option = {	
		name = magic_realm_abjuration.0.t
		#trigger = { has_ruler_flag = abjuration_1 }
		ai_chance = {
			factor = 50
			modifier = {
				factor = 0
				NOT = { has_ruler_flag = abjuration_1 }
			}
			modifier = {
				factor = 2
				is_at_war = yes
			}
		}
		country_event = { id = magic_realm_abjuration.0 days = 0 }
	}
	option = {	
		name = magic_realm_conjuration.0.t
		#trigger = { has_ruler_flag = conjuration_1 }
		ai_chance = {
			factor = 50
			modifier = {
				factor = 0
				NOT = { has_ruler_flag = conjuration_1 }
			}
		}
		country_event = { id = magic_realm_conjuration.0 days = 0 }
	}
	option = {	
		name = magic_realm_divination.0.t
		#trigger = { has_ruler_flag = divination_1 }
		ai_chance = {
			factor = 50
			modifier = {
				factor = 0
				NOT = { has_ruler_flag = divination_1 }
			}
		}
		country_event = { id = magic_realm_divination.0 days = 0 }
	}
	option = {	
		name = magic_realm_enchantment.0.t
		#trigger = { has_ruler_flag = enchantment_1 }
		ai_chance = {
			factor = 50
			modifier = {
				factor = 0
				NOT = { has_ruler_flag = enchantment_1 }
			}
		}
		country_event = { id = magic_realm_enchantment.0 days = 0 }
	}
	option = {	
		name = magic_realm_evocation.0.t
		#trigger = { has_ruler_flag = evocation_1 }
		ai_chance = {
			factor = 50
			modifier = {
				factor = 0
				NOT = { has_ruler_flag = evocation_1 }
			}
			modifier = {
				factor = 2
				is_at_war = yes
			}
		}
		country_event = { id = magic_realm_evocation.0 days = 0 }
	}
	option = {	
		name = magic_realm_illusion.0.t
		#trigger = { has_ruler_flag = illusion_1 }
		ai_chance = {
			factor = 50
			modifier = {
				factor = 0
				NOT = { has_ruler_flag = illusion_1 }
			}
		}
		country_event = { id = magic_realm_illusion.0 days = 0 }
	}
	option = {	
		name = magic_realm_necromancy.0.t
		#trigger = { has_ruler_flag = necromancy_1 }
		ai_chance = {
			factor = 30
			modifier = {
				factor = 0
				NOT = { has_ruler_flag = necromancy_1 }
			}
			modifier = {
				factor = 2
				is_at_war = yes
			}
		}
		country_event = { id = magic_realm_necromancy.0 days = 0 }
	}
	option = {	
		name = magic_realm_transmutation.0.t
		#trigger = { has_ruler_flag = transmutation_1 }
		ai_chance = {
			factor = 50
			modifier = {
				factor = 0
				NOT = { has_ruler_flag = transmutation_1 }
			}
			modifier = {
				factor = 4	#makes em pick this for the rite of conception
				has_ruler_flag = transmutation_2
				has_heir = no
			}
		}
		country_event = { id = magic_realm_transmutation.0 days = 0 }
	}
}